      1990  1 1 74935.83  -21.612-179.458596.5       5.100
      1990  1 11449 0.76  -10.391 161.301 34.5       5.100
      1990  1 116 727.25   -7.169 125.251529.5       5.200
      1990  1 1172142.61  -19.113 167.273 33.0       5.100
      1990  1 118 319.09    6.845 -72.992154.5       5.300
      1990  1 2 125 6.80    8.326 127.443 42.4       5.400
      1990  1 2202133.79   13.408 144.406147.0       5.700
      1990  1 2213818.40   -2.587 127.744 33.0       5.400
      1990  1 4 53225.42  -15.046-172.904 82.6       6.400
      1990  1 4185431.29  -41.637  85.242 10.0       5.100
      1990  1 42224 1.02   -3.147 148.521 33.0       5.100
      1990  1 4232556.80   32.456 138.953246.5       5.100
      1990  1 5 71651.69   41.804-126.811 10.0       4.700
      1990  1 5101021.40   -8.750 106.527 26.7       5.300
      1990  1 5151845.19   -3.849 -80.730 33.0       5.000
      1990  1 51827 0.34   18.862-106.733 33.0       5.400
      1990  1 6214455.63  -10.674  93.019 10.0       5.800
      1990  1 7 74545.42    8.145 126.642 33.0       5.300
      1990  1 7 9 643.36  -15.911 -74.283 48.3       5.900
      1990  1 711 2 3.84   64.727-149.016 10.0       5.000
      1990  1 7132847.47   41.534 142.072 71.0       5.200
      1990  1 714 5 1.36  -11.912 167.682 33.0       5.400
      1990  1 7205329.00  -32.196  57.437 10.0       5.300
      1990  1 8 41739.41  -17.667-172.529 33.0       5.000
      1990  1 8 81044.18    9.223 127.048 33.0       5.300
      1990  1 8122647.98  -24.007 179.872595.1       5.000
      1990  1 8125839.02    7.875 126.487140.8       5.000
      1990  1 819 644.60   13.250 143.944145.7       5.000
      1990  1 8194434.38   52.068-169.431 33.0       5.600
      1990  1 8201145.21   52.175-169.445 33.0       5.100
      1990  1 8213945.07   52.124-169.426 33.0       5.000
      1990  1 9 22921.21   28.110  88.129 33.0       5.600
      1990  1 9 45838.85   52.018-169.363 33.0       5.400
      1990  1 9144258.71  -21.700-179.456607.5       5.200
      1990  1 9153548.86   11.586  95.025 33.0       5.300
      1990  1 9185128.99   24.748  95.277117.5       6.100
      1990  1 919 945.93   18.070 -64.754 33.0       5.000
      1990  110 25752.23    5.546 -75.973 79.2       5.100
      1990  110 3 915.80   39.693 143.361 12.6       5.300
      1990  110 31117.00   39.718 143.400 33.0       5.700
      1990  110 63754.52   24.538  94.681 85.0       5.100
      1990  11010 6 1.40  -52.206  13.558 10.0       5.500
      1990  110102115.70  -24.777-175.258 33.0       5.100
      1990  110115321.25   11.603  95.187 33.0       5.300
      1990  110131012.10   52.133-169.257 33.0       5.700
      1990  110161145.66  -10.287 123.677 38.6       5.600
      1990  110182847.91  -10.316 124.037 33.0       5.000
      1990  111 41348.77  -17.475-178.813554.8       5.300
      1990  111192248.84  -40.771  78.354 10.0       4.900
      1990  111202350.61   -5.150 151.061184.2       5.200
      1990  1112115 0.13   35.843  80.688 33.0       5.300
      1990  112 32458.55   12.587 -87.520 86.5       5.300
      1990  112152815.06    4.976 126.464 65.8       5.500
      1990  112182134.57  -22.189 -69.945 41.5       5.000
      1990  1122217 5.83   53.884-131.429 10.0       5.200
      1990  113 2 727.80   16.854 -99.518 36.3       5.200
      1990  113 33214.93   12.662 125.041 34.2       5.300
      1990  113111544.10   15.797 147.259 37.3       5.100
      1990  113141343.43  -22.126 170.313 28.4       5.000
      1990  11317 2 9.64  -18.321-175.917312.8       5.100
      1990  113183116.61   15.775 147.249 50.1       5.300
      1990  11320 341.59  -10.217 117.784 35.1       5.300
      1990  11320 510.06   27.576-115.104 10.0       5.100
      1990  113201817.92  -10.808 166.013 47.0       5.000
      1990  113215330.55    0.304 122.001181.4       5.200
      1990  114 3 319.88   37.767  91.894 17.0       6.100
      1990  114 33312.53   45.289 150.984 33.0       5.500
      1990  114 338 4.39   45.322 150.898 48.0       5.700
      1990  114 35246.87   45.349 150.950 33.0       5.000
      1990  114 72011.50   45.331 151.024 33.0       5.000
      1990  1141246 0.43   45.355 150.978 33.0       5.000
      1990  11421 4 0.21  -29.652-177.420 33.0       5.500
      1990  11511 8 4.67   10.093 126.348 45.3       5.200
      1990  115124228.49   24.425 122.063 47.2       5.100
      1990  1151918 6.56  -14.901 166.785 33.0       5.000
      1990  116 73633.18  -31.684-178.106 33.0       5.500
      1990  116 75633.48  -31.713-178.012 33.0       5.500
      1990  116 84154.82   -5.146 132.415 50.5       5.000
      1990  1161052 8.31  -31.657-178.092 33.0       5.500
      1990  11620 822.00   40.232-124.138  2.0       5.100
      1990  117 638 6.57  -31.664 116.999 10.0       5.400
      1990  11712 529.44   43.617-127.487 10.0       5.400
      1990  117165849.15   -2.456 138.726 33.0       4.800
      1990  118 54236.17  -30.081-177.636 25.2       5.500
      1990  118124526.08  -29.999-177.706 26.2       5.900
      1990  118182958.22    0.110 124.721 60.7       5.100
      1990  1181838 9.06  -56.106 -27.432 33.0       5.100
      1990  118195922.41   -5.280 150.604135.5       5.600
      1990  118205749.67  -20.639-178.596585.3       5.600
      1990  119 332 9.03   46.254 151.970 33.0       5.000
      1990  120 12711.09   35.820  52.925 33.0       5.500
      1990  120 25555.05   40.124 142.364 47.9       5.200
      1990  120 72021.39  -15.046-173.573 33.0       5.500
      1990  120 91317.72   -6.828 105.859 93.9       5.200
      1990  1201659 1.71   -6.024 -81.110 33.0       5.000
      1990  120182048.13  -29.759 -72.243 33.0       5.300
      1990  120184321.91  -33.441 -97.634 10.0       5.000
      1990  121 15939.83   51.993-169.974 33.0       5.200
      1990  121 52651.53    1.839 127.288134.5       5.000
      1990  121 73058.09  -29.784 -71.463 10.0       5.100
      1990  121131011.08    2.675 -79.802 40.3       5.000
      1990  121164344.80  -21.071-173.833 33.0       5.100
      1990  122 232 4.33  -20.956-173.879 38.0       5.500
      1990  122 5 853.71  -22.080 170.022 33.0       5.100
      1990  122 82534.18  -31.549-178.123 33.0       5.300
      1990  122172612.15    3.848  96.103 51.4       6.000
      1990  123 747 9.48  -12.463 -75.081104.8       5.500
      1990  123132919.18   37.419 141.752 33.0       5.000
      1990  123204446.56   19.057 121.358 33.0       5.100
      1990  124 75358.29  -23.629 -70.248 10.0       5.000
      1990  12410 613.35   49.069 155.549 44.4       5.300
      1990  124193331.05   14.582 119.455 23.1       5.600
      1990  1242047 8.81   42.358-126.267 10.0       5.000
      1990  125 62940.24  -31.281-178.001197.3       5.000
      1990  126 32626.04  -26.644-176.391 33.0       5.000
      1990  127 03454.89   -6.889 130.352111.6       5.100
      1990  127231813.95  -38.599 -74.605 10.0       5.000
      1990  128 35847.13   -5.960 105.640 82.6       5.400
      1990  128111532.87  -16.568 167.429 33.0       5.100
      1990  129 01642.91   51.715-175.272 46.2       5.000
      1990  129 24126.30   18.750-102.192 37.7       5.400
      1990  129195058.26   27.195 129.432 33.0       5.200
      1990  129203420.27    6.094  94.696 97.2       5.000
      1990  129205725.41   51.985-169.525 33.0       5.000
      1990  130 315 2.13   42.984 145.482 41.4       5.500
      1990  130181413.09  -23.297 179.056549.9       5.400
      1990  2 1 12532.91   -9.825 160.111 53.9       5.000
      1990  2 1 5 623.19   -2.670 134.998 47.9       5.200
      1990  2 1111624.28    7.955 126.977 71.2       5.000
      1990  2 1183353.84    8.238 126.769 64.3       5.300
      1990  2 2 12821.88  -25.378  70.099 10.0       5.200
      1990  2 21449 9.33  -18.388 176.929 10.0       5.600
      1990  2 2183446.76  -17.936-178.378576.1       5.500
      1990  2 2185341.53   -5.314 151.168 60.2       5.600
      1990  2 3 44338.19   -2.953 126.154 44.2       5.100
      1990  2 3 73054.36   18.691 -64.644 61.9       5.000
      1990  2 3 95453.20   50.986-130.693 18.0       5.100
      1990  2 312 451.03   -7.054 129.207174.3       5.000
      1990  2 3222730.21   -2.323 125.004 33.0       5.200
      1990  2 4 2 223.41   28.112 130.008 24.9       5.100
      1990  2 4 75814.04  -10.243 110.311 47.2       5.700
      1990  2 4125057.49   -4.804 153.273 65.2       5.200
      1990  2 4202614.59  -22.311 -68.492113.3       5.200
      1990  2 5 51645.14   37.069  71.273101.8       6.100
      1990  2 6 73429.13   10.126 -72.610 42.5       5.300
      1990  2 611 654.10   36.442  71.438 90.8       5.200
      1990  2 7 6 255.98    9.796 124.706 64.2       5.000
      1990  2 7 624 0.80  -17.588-179.062554.4       5.400
      1990  2 8 71532.39    9.691 124.708 30.7       6.200
      1990  2 8 72157.82    9.658 124.543 33.0       5.100
      1990  2 8 73950.82    9.658 124.841 33.0       5.300
      1990  2 8 747 0.10    9.726 124.643 33.9       6.000
      1990  2 8 82644.17    9.690 124.429 54.7       5.300
      1990  2 8154730.31   36.055 -12.100 10.0       5.000
      1990  2 9 12219.12    9.729 124.828 59.6       5.100
      1990  2 9 4 434.82   26.092  98.841 10.0       5.200
      1990  2 9 93147.87   36.747   2.426 12.4       5.000
      1990  2 917 920.22  -14.852 -75.603 18.8       5.500
      1990  2 9175726.62   31.765 121.017 10.0       5.100
      1990  210 24613.31  -18.733 -71.318 47.1       5.100
      1990  210 32741.79  -42.294 172.800 12.4       6.000
      1990  210 33431.88  -18.758 -71.452 33.2       5.000
      1990  210 35450.89  -42.188 172.745 33.0       5.100
      1990  210 64510.27    3.453 -82.856 10.0       5.000
      1990  210 65613.78    3.531 -82.833 10.0       5.100
      1990  210131222.72   -5.446 151.186 74.8       5.400
      1990  210171210.85   -3.184 -80.867 58.2       5.600
      1990  210204538.95   51.634 178.117 60.1       5.500
      1990  210205514.50    9.535 124.881 33.0       5.200
      1990  211 11219.98    0.861 126.056 63.0       5.200
      1990  211112353.75   -3.806 -81.648 32.6       5.000
      1990  211121027.88   -5.295 151.408 33.0       5.400
      1990  2111354 8.40   -6.393 146.971 64.5       5.100
      1990  211154817.14  -43.277 -76.266 31.4       5.300
      1990  2111746 6.30   36.326 140.978 47.5       5.400
      1990  211215842.46  -30.113-177.914 33.0       5.300
      1990  212 11318.49  -17.759-178.862646.3       5.000
      1990  212 33056.47   -5.226 151.760 82.6       5.100
      1990  212 55134.07  -49.180 122.307 10.0       5.000
      1990  212122535.99   -5.264 151.360 33.0       5.500
      1990  212134429.37   44.149-128.911 10.0       5.100
      1990  212233059.80    9.783 124.483 33.0       5.000
      1990  212235636.62  -31.152 -48.311 29.9       5.400
      1990  214101535.69  -49.293 164.929 33.0       5.300
      1990  21418 357.34    6.279 126.380 89.9       5.200
      1990  215 02713.15   -0.432 123.669232.0       5.000
      1990  21522 8 3.91   -5.213 151.388 33.0       5.600
      1990  216 555 4.56   35.915  54.421 33.0       5.100
      1990  216 622 9.43  -22.329-174.305 33.0       5.100
      1990  216 74930.62    8.795 -83.083 33.0       5.200
      1990  216132842.80   49.131-127.733 10.0       5.200
      1990  216151245.79   -3.193 -80.687 76.3       5.000
      1990  21621 253.99   -3.529 140.207 45.8       5.300
      1990  216212953.79   15.843 147.236 36.1       5.100
      1990  216225026.70    7.405 126.438 33.0       5.100
      1990  217 1 410.17   33.562 141.379 33.0       5.100
      1990  217 122 1.46   -5.361-105.912 10.0       5.400
      1990  217 12241.88  -19.463-175.572210.5       5.100
      1990  217 12418.99   14.962 -98.063 33.0       5.100
      1990  217 138 7.29   16.140 -97.914 43.6       5.100
      1990  217 228 0.20   29.500 130.796 50.4       6.100
      1990  217 25057.81   15.847 147.127 43.5       5.600
      1990  217123136.62   41.598 144.299 33.0       5.000
      1990  2171858 7.78   52.056-169.488 33.0       5.000
      1990  218122158.30   -5.514 149.463143.9       5.900
      1990  219 53437.41  -40.300 176.045 22.8       5.900
      1990  219 64813.21  -15.411 166.297 35.5       6.300
      1990  219 72812.46  -15.217 166.085 33.0       5.000
      1990  219163955.61   -6.594 129.297208.5       5.300
      1990  219164633.22  -16.238-173.949 33.0       5.400
      1990  219185916.05   31.028 -41.343 10.0       5.000
      1990  219213330.25  -16.330-178.357454.3       5.000
      1990  220 65339.64   34.694 139.351 13.2       6.100
      1990  220 91522.68   46.935 154.016 33.0       5.500
      1990  220103955.71   18.219  94.823 33.0       5.000
      1990  22011 751.83    0.898 127.345192.0       5.200
      1990  220181756.02  -21.541 170.467158.6       5.300
      1990  2201848 4.03  -25.423-116.166 10.0       5.400
      1990  221182015.34   16.875 -62.338116.8       5.800
      1990  221203953.04   52.158 174.389 33.0       5.000
      1990  222 74734.33  -15.355 166.185 33.0       5.000
      1990  222125146.65    5.591  94.353 81.5       5.000
      1990  222131156.52  -21.703-179.392579.1       5.200
      1990  222133313.73   29.077  89.946 33.0       5.000
      1990  222164432.05  -24.615 -68.841100.9       5.300
      1990  222165150.45  -11.508  66.343 10.0       5.800
      1990  222185945.30   11.599 -86.719 31.4       5.200
      1990  223 45439.90    8.016 126.764 67.7       5.000
      1990  223154015.94    7.382  94.515 33.0       5.300
      1990  223174527.63  -17.809-178.540542.7       5.000
      1990  224191315.49  -15.280-175.453 33.0       5.700
      1990  225 3 816.72  -10.571 165.193 33.0       5.600
      1990  2252251 8.81  -18.109 -69.299141.1       5.600
      1990  226181359.37   -9.661 149.861 33.0       5.300
      1990  226182125.62   29.786  67.510 13.7       5.400
      1990  226182911.28  -26.717-114.721 10.0       5.300
      1990  22619 635.29  -26.732-114.844 10.0       5.700
      1990  227 92855.09  -17.129 -64.219611.2       5.500
      1990  227201535.41   -1.843 129.070 33.0       5.000
      1990  227214956.22   52.147-166.852 33.0       5.300
      1990  228161021.49    9.043 126.770 52.3       5.100
      1990  22818 126.26  -15.552 166.115 30.2       5.000
      1990  22820 529.15  -13.865  34.031 10.0       5.200
      1990  228234336.00   34.140-117.688 10.0       5.500
      1990  3 1 22324.02   53.310 160.142 33.0       5.500
      1990  3 1 73521.66   51.179-175.030 33.0       5.000
      1990  3 1132534.71   52.090-176.012 48.0       5.300
      1990  3 116 6 0.43   -7.981 120.985 33.0       5.500
      1990  3 12055 6.27   16.725 -60.973 46.6       5.300
      1990  3 1214056.62   30.594 131.019 36.6       5.200
      1990  3 1225643.45  -13.902  33.992 10.0       5.200
      1990  3 2 73538.15  -17.925-178.758637.1       5.000
      1990  3 222 626.67  -21.336-174.537 33.0       5.500
      1990  3 3 51133.36   32.063 139.793141.6       5.300
      1990  3 3 84144.41   16.188 -94.269 87.6       5.400
      1990  3 3121626.95  -22.041 175.156 33.0       6.400
      1990  3 3123458.47  -21.508 175.888 33.0       5.700
      1990  3 3124422.54  -22.341 174.148 33.0       6.300
      1990  3 3183250.70  -21.671 175.332 33.0       5.300
      1990  3 31929 1.67  -21.779 175.652 33.0       5.100
      1990  3 4 63530.36    7.857 135.769 33.0       5.000
      1990  3 4172146.17  -15.357 167.820 33.0       5.500
      1990  3 4194622.10   28.872  66.349 28.3       5.700
      1990  3 5 613 6.91   20.705 143.888 22.1       5.100
      1990  3 5155714.87   -5.004 146.568179.9       5.000
      1990  3 5163815.03  -18.134 167.949 33.0       5.600
      1990  3 5171039.40  -18.268 167.994 33.0       5.300
      1990  3 52047 3.54   36.850  73.009 33.0       5.800
      1990  3 5205116.86   36.810  73.067 33.0       5.800
      1990  3 5205523.99   29.240 141.799 33.0       5.200
      1990  3 521 2 6.09   35.215 135.321 33.0       5.100
      1990  3 523 423.70   36.743  72.974 33.0       5.000
      1990  3 6122447.85  -20.249-178.082598.9       5.000
      1990  3 6133059.13  -11.298 117.488 33.0       5.600
      1990  3 61525 4.10  -11.038 119.460 33.0       5.000
      1990  3 618 7 6.19   36.882  73.104 33.0       5.000
      1990  3 6213951.36   36.865  73.088 33.0       5.200
      1990  3 6232847.69  -21.398 176.091 33.0       5.100
      1990  3 7 21617.68    3.508 126.719 79.5       5.500
      1990  3 713 030.19  -21.973 175.245 33.0       5.100
      1990  3 71822 3.42  -17.331  66.639 10.0       5.200
      1990  3 8 7 846.44   11.668 141.072 78.6       5.400
      1990  3 8 94744.30   58.485-153.102 62.2       6.000
      1990  3 8 94846.92  -19.496 169.242167.2       5.500
      1990  3 8101513.93  -18.237 168.378 33.0       5.100
      1990  3 81857 1.73   25.559  96.620 33.0       4.900
      1990  3 91234 0.70   60.417-152.607 92.4       5.200
      1990  310 211 0.80   60.454-152.520 97.3       5.000
      1990  310 33126.67  -21.819 170.372100.0       5.000
      1990  3101015 3.95   50.901 157.260 50.7       5.700
      1990  31016 0 0.08   37.113-116.055  0.0       5.100
      1990  311 05531.04  -37.203  78.165 10.0       5.000
      1990  311222049.99  -20.583 168.210 38.2       5.300
      1990  311224635.04   33.434 138.636 26.4       5.200
      1990  312125951.24  -48.048 165.450 33.0       5.300
      1990  312133255.39   -3.171 128.862 28.4       5.300
      1990  312144121.91   51.391-174.967 33.0       6.100
      1990  312144720.95   51.389-175.033 33.0       5.200
      1990  31215 632.23   51.498-174.941 33.0       5.100
      1990  312231815.20  -13.200 166.902161.7       5.100
      1990  313 0 252.60   23.965 144.988 29.6       5.200
      1990  313 03258.96   73.314 134.955 16.4       5.400
      1990  313 04230.19   -6.357-107.479 10.0       4.600
      1990  313 1 450.23  -16.716-172.390 33.0       5.100
      1990  313133039.70  -47.895 165.760 33.0       5.100
      1990  313194034.40   -3.421 -76.908117.2       5.800
      1990  31323 530.40   -4.078  39.897 18.4       5.500
      1990  314 33318.65   10.261 -59.947 47.4       5.400
      1990  314 34449.16    4.595 122.617639.5       5.600
      1990  315 45634.52  -15.151 167.249131.4       5.500
      1990  315 61230.83  -24.412-177.417 33.0       5.200
      1990  315221923.77    5.446 126.992 33.0       5.000
      1990  316 63211.68    4.546 -31.401 10.0       5.100
      1990  316 63657.22    5.837 -32.929 10.0       4.700
      1990  316155244.20   24.928-109.102 19.7       5.400
      1990  316163346.10   23.767 123.370 33.0       5.200
      1990  317 2 1 7.66   -7.463 129.668 97.2       5.000
      1990  317122013.27   -4.379 144.033110.9       5.400
      1990  3171613 0.10   28.473 143.641 65.8       5.100
      1990  318164855.38    6.196 125.492 33.0       5.000
      1990  3182230 7.46  -48.668 106.994 10.0       5.200
      1990  318231929.01  -20.448  66.761 20.0       5.800
      1990  319 45944.27  -24.886 -68.686123.9       5.000
      1990  319 723 5.46   -8.262 121.475 33.0       5.000
      1990  31922 840.28   -5.606 149.409151.4       5.100
      1990  320 11220.22   27.206 141.564 50.4       5.900
      1990  320 75157.15   15.806 -46.804 17.5       5.000
      1990  320171140.08   -5.560 129.620 33.0       5.000
      1990  320185522.37  -45.833  96.315 10.0       5.100
      1990  32022 451.98   29.455 131.592 60.3       5.600
      1990  3211646 6.64  -31.118-179.210153.2       6.000
      1990  3211851 9.78   10.805 -65.411 23.4       5.300
      1990  32122 556.95   -5.535 151.973 71.6       5.200
      1990  322 0 014.40  -36.690 177.275201.6       5.800
      1990  322 21150.76   -8.421 158.878114.8       5.300
      1990  323 75657.37   -5.720 149.105153.9       5.000
      1990  323114327.88  -60.017 -26.550 33.0       5.000
      1990  323133537.00  -49.223 122.445 10.0       5.000
      1990  32314 715.18   16.117 -96.266 62.3       5.200
      1990  3231439 4.41  -45.527  96.096 10.0       5.000
      1990  32321 6 3.78   43.765 147.696 37.8       5.200
      1990  324 7 552.82  -47.935 164.791 33.0       5.400
      1990  324172018.49  -16.255-173.018 33.0       5.400
      1990  325 11043.39  -32.849-178.572 33.0       5.100
      1990  325 62222.38    7.891 127.435 69.9       5.000
      1990  3251316 5.59    9.716 -84.924 20.0       5.800
      1990  325132254.99    9.889 -84.885 19.4       6.300
      1990  325141718.64   37.016  72.959 31.9       6.000
      1990  325151040.37   36.987  73.108 33.0       5.200
      1990  325154636.41   36.944  73.054 33.0       5.400
      1990  325172827.45   37.184  72.907 33.0       5.000
      1990  325213524.71    9.647 -84.665 41.8       5.500
      1990  326 52430.98  -26.665 -70.736 29.6       5.100
      1990  326 55821.03  -26.702 -70.812 21.6       5.100
      1990  32622 857.09   44.497 148.779 33.0       5.100
      1990  326224717.00    9.249 125.552 40.4       5.600
      1990  327 02034.19  -14.770 167.755 33.0       5.400
      1990  327145219.14    9.513 -84.787 34.5       5.100
      1990  32720 416.05   -5.295 145.820 79.6       5.400
      1990  328 12041.54  -21.843 175.193 10.0       5.200
      1990  328142725.25   -5.623 149.384187.2       5.200
      1990  328195019.60  -16.080-173.200 33.0       5.400
      1990  329 1 154.09  -49.021 109.221 10.0       5.000
      1990  329 14224.41  -20.916-175.939 33.0       5.100
      1990  329 434 4.12   45.256 150.187 51.2       5.200
      1990  329141545.42   16.551 145.836 28.1       5.300
      1990  329161915.24   39.372  73.309 22.3       5.400
      1990  330 042 7.47   20.176 122.026128.1       5.500
      1990  330 25357.74   16.513 145.977 21.7       5.300
      1990  330 74334.91   16.519 145.952 33.0       5.100
      1990  33015 728.21   16.289 146.012 33.0       5.000
      1990  331 85454.95  -23.643-115.118 10.0       5.000
      1990  33114 8 3.10   16.472 145.703 33.0       5.000
      1990  331165451.92  -15.673 167.643 33.0       5.000
      1990  331193144.25   42.805 146.970 34.2       5.900
      1990  331205533.70   42.934 146.944 39.4       4.600
      1990  331211232.91   42.729 147.096 29.0       5.000
      1990  4 1 04651.01   35.751  70.803 95.7       5.000
      1990  4 11613 5.41   24.360 141.186208.0       5.400
      1990  4 2 556 9.07  -30.235-177.946 33.0       5.000
      1990  4 2135634.61  -32.574 -71.970 38.9       5.500
      1990  4 2144147.52   49.270 156.560 33.0       4.700
      1990  4 3 73327.05   -5.892 147.686 98.8       5.800
      1990  4 320 436.19  -22.295 174.215 33.0       5.200
      1990  4 322 237.34   43.426  17.344 10.0       5.100
      1990  4 32257 0.62   11.397 -86.388 52.5       5.900
      1990  4 3231214.55   11.423 -86.410 64.5       5.400
      1990  4 4 41925.59   11.482 -86.554 67.5       5.400
      1990  4 4 540 8.88  -21.628-173.931 36.3       5.400
      1990  4 4 547 6.44  -16.275 -73.299 56.3       5.600
      1990  4 4 637 4.17  -17.750-178.882576.9       5.000
      1990  4 4 9 726.76   -0.676 122.603 33.0       5.100
      1990  4 41348 5.70  -55.413 -27.515 10.0       5.300
      1990  4 4195148.09   -4.785 151.605 23.7       5.000
      1990  4 5 02114.87   23.541 121.692 33.0       5.100
      1990  4 5 45052.09  -56.688 147.204 10.0       5.100
      1990  4 5192044.40   -2.944  35.951 10.0       5.200
      1990  4 5211238.73   15.226 147.529 32.0       6.500
      1990  4 5212231.61   15.389 147.552 33.0       5.300
      1990  4 5215712.71   15.480 147.786 33.0       5.100
      1990  4 5225259.83   15.558 147.536 46.0       5.500
      1990  4 5232338.71   15.576 147.572 33.0       5.000
      1990  4 5232617.68   15.498 147.656 38.8       5.200
      1990  4 52330 1.46   14.660 147.003 33.0       5.100
      1990  4 5233337.27   15.445 147.731 35.5       5.300
      1990  4 5235857.30   15.582 147.667 33.0       5.100
      1990  4 6 0 226.74   15.183 147.554 36.0       5.100
      1990  4 6 13726.18   15.660 147.652 24.3       5.000
      1990  4 6 240 1.53   15.515 147.604 36.6       5.300
      1990  4 6 347 5.86   15.108 147.734 33.0       5.000
      1990  4 6 35641.97   15.260 147.622 33.0       5.200
      1990  4 6 439 8.87   15.244 147.493 37.5       5.100
      1990  4 6 44234.89   15.104 147.603 33.0       5.500
      1990  4 6 5 8 0.76   15.102 147.600 33.0       5.000
      1990  4 6 53120.28   15.324 147.303 33.0       5.000
      1990  4 6 543 5.53  -41.137  80.869 10.0       5.700
      1990  4 6 54744.14   -6.851 105.220 33.0       5.300
      1990  4 6 6 9 1.89  -15.451-172.005 33.0       5.300
      1990  4 6 61742.98   15.729 147.324 33.0       4.700
      1990  4 6 63011.16   15.441 147.595 33.0       5.200
      1990  4 6 73330.37   15.543 147.582 41.4       5.200
      1990  4 6 752 1.02  -60.508 -25.486 33.0       5.700
      1990  4 6143145.96  -21.781-174.159 33.0       5.800
      1990  4 6145722.66   15.208 147.560 33.0       5.800
      1990  4 6163138.97  -25.848-176.119 65.8       5.500
      1990  4 6223844.79   15.054 147.536 33.7       5.300
      1990  4 6234258.95  -25.752-175.942 33.0       5.100
      1990  4 7 24434.17  -25.588-176.110 33.0       5.400
      1990  4 71826 0.91  -18.059 168.036 76.5       5.100
      1990  4 72011 1.98   56.139-153.857 33.0       5.200
      1990  4 72235 2.52   26.771 127.664 33.0       5.100
      1990  4 8 43427.62   36.269 141.941 24.2       5.100
      1990  4 8 92619.41   45.218 148.675 80.0       5.100
      1990  4 8 94616.67  -17.575-179.055549.1       5.000
      1990  4 8191351.29   30.090  99.305 10.0       5.400
      1990  4 9 6 011.86   15.643 147.580 33.0       5.000
      1990  4 9 93115.06  -25.659-176.100 56.2       5.800
      1990  4 9 94531.25  -21.415 -68.460130.9       5.000
      1990  4 9131523.75  -26.107-175.928 33.0       5.100
      1990  410 55055.86   -6.672 127.447 81.6       5.400
      1990  410 64245.31   14.952 146.529 33.0       5.000
      1990  410162959.96   37.040  71.464 33.0       5.000
      1990  410224443.06  -10.572 109.572 33.0       5.400
      1990  411 75337.78   42.548 144.039 72.0       5.600
      1990  411131020.04  -30.647-177.751 47.6       5.400
      1990  411205112.76   35.453 135.484369.0       5.700
      1990  413 81557.43  -17.403-178.750552.8       5.000
      1990  4131417 4.14   -7.191 106.677 33.0       5.000
      1990  4132247 4.21   -6.781 130.399 91.5       5.100
      1990  414 52949.38    7.987 126.673 62.3       5.400
      1990  414 53933.74    8.129 126.907 33.0       4.900
      1990  414 8 013.95   27.275 139.904458.6       5.600
      1990  4152244 7.11   24.384 122.021 33.0       5.300
      1990  4161548 1.00   11.892 143.225 33.0       5.200
      1990  416191851.52   -2.164 141.517 29.1       5.100
      1990  416223711.93  -14.780 167.223118.5       5.500
      1990  417 15928.47   39.431  74.301 19.6       5.900
      1990  417105430.84  -56.391 -25.546 33.0       5.000
      1990  4171134 8.31    7.398 -35.316  4.5       5.600
      1990  4172124 9.04    8.567 124.202 29.9       5.000
      1990  418 31115.76   15.358 147.540 33.0       5.200
      1990  418 51817.30   15.162 147.503 33.0       5.000
      1990  418103348.60  -57.954 -10.407 10.0       5.200
      1990  418133919.25    1.162 122.839 28.1       6.200
      1990  418135351.40   36.917-121.675  5.0       5.400
      1990  418135419.03    0.368 123.131 33.0       5.500
      1990  4181419 1.78    1.193 123.001 33.0       5.600
      1990  418142356.36    1.184 122.951 33.0       5.200
      1990  418143515.41    1.335 122.969 33.0       5.400
      1990  418151522.02    1.335 123.015 33.0       5.100
      1990  4181527 8.40    1.203 123.115 28.6       5.400
      1990  418155046.33    1.294 122.830 33.0       5.000
      1990  418162331.52   -1.903 126.098 33.0       5.200
      1990  418165446.57    1.250 123.106 33.0       5.100
      1990  41817 618.50    1.246 122.966 35.3       5.600
      1990  418171753.52    1.385 123.511 33.0       5.100
      1990  418182450.86    1.230 123.450 31.2       5.500
      1990  4181833 1.97    1.285 123.051 33.0       5.900
      1990  418185438.39    1.225 123.327 28.5       5.500
      1990  41819 8 0.92    1.273 123.304 33.0       5.400
      1990  418191929.77    1.242 123.466 33.0       5.100
      1990  418192240.05    1.210 123.434 35.6       5.500
      1990  418205736.66    1.407 123.548 33.0       5.000
      1990  418213513.15    1.311 123.661 33.0       5.000
      1990  419 1 5 8.56    1.282 123.056 33.0       5.600
      1990  419 35922.42    1.175 123.524 28.1       5.200
      1990  419 82832.85    1.463 123.667 33.0       5.100
      1990  419124039.49    1.117 123.484 31.4       5.700
      1990  41915 054.66    1.280 123.025 33.0       5.000
      1990  41922 3 8.05    1.050 123.940 25.8       5.100
      1990  419224131.64   34.057  69.633 33.2       5.300
      1990  420 81637.23   14.719 147.539 34.9       5.000
      1990  420 85135.54  -24.115-179.665480.6       5.100
      1990  420182329.47  -14.864 -71.482143.0       5.000
      1990  420182550.59  -20.297-177.762490.0       5.000
      1990  420203337.85   13.197 -90.111 74.9       5.100
      1990  420232029.59   -6.267 151.178 33.0       5.400
      1990  4202330 3.13   39.982  40.089 12.5       5.100
      1990  421 12659.83   15.474 147.708 33.0       5.200
      1990  421 514 3.77    1.224 123.274 32.9       5.100
      1990  421185455.07  -36.954 -73.254 30.4       6.000
      1990  421225655.10   47.460 138.964503.4       5.200
      1990  421232020.86  -22.531 -70.409 45.5       5.100
      1990  422 55424.35    6.736 -73.123162.9       5.000
      1990  422 82319.96  -37.020 -73.287 33.0       5.100
      1990  422202525.54  -38.014 -73.362 33.0       5.300
      1990  422235152.51    0.963 120.035 33.0       5.300
      1990  423 25945.97   52.791-167.799 33.0       5.000
      1990  42410 039.90    1.389 123.471 33.0       5.100
      1990  424234950.51   26.355 128.811 19.1       5.100
      1990  425 21330.71  -14.917-179.219418.2       5.400
      1990  425 22421.37   24.317 123.480 33.0       5.200
      1990  425 71054.11   48.271 154.377 38.9       5.500
      1990  425153223.83   -7.074 150.074 41.0       5.400
      1990  426 93714.32   36.007 100.274 33.0       5.800
      1990  426 93718.55   35.961 100.227 33.0       6.600
      1990  426 93749.57   36.429 100.097 33.0       6.200
      1990  426153925.46   -6.250 154.704 96.2       5.600
      1990  426154035.01    1.056 122.759 28.1       5.800
      1990  426203633.51   45.761 151.356 33.0       5.100
      1990  427 250 4.40  -13.704 166.840 75.0       5.500
      1990  427 52928.39   28.662  66.270 33.0       5.200
      1990  427 94230.49    1.452 123.605 33.0       5.300
      1990  42716 2 4.05   -8.928-108.845 33.0       5.100
      1990  428 12312.12    8.857 -83.563 28.2       6.000
      1990  428114221.72  -26.170-177.656 18.8       5.700
      1990  429 54340.63   -4.106 151.892 29.4       5.300
      1990  429 8 0 5.24   51.115-147.851 33.0       5.000
      1990  429 82017.31   48.061 153.929 33.0       5.000
      1990  430 13859.67  -17.315 -72.801 41.1       5.100
      1990  430 15547.49   26.876  91.538 33.0       5.200
      1990  430 55441.59  -54.317   1.250 10.0       5.900
      1990  430142626.89    8.800 126.109116.2       5.400
      1990  43018 016.97    7.324  94.351 21.2       5.400
      1990  43018 829.97  -25.093-112.508 10.0       5.200
      1990  5 1114433.86   14.026 -91.794 33.0       5.300
      1990  5 1161222.09   58.823-156.849216.7       6.100
      1990  5 2 1 119.80   49.269 155.676 49.8       5.300
      1990  5 2 41941.97    0.031 124.271113.0       5.300
      1990  5 2 5 753.56   -7.849 123.507265.3       5.300
      1990  5 214 338.82   -5.403 150.511156.0       5.100
      1990  5 22034 2.66   46.825 154.231 33.0       5.100
      1990  5 2225031.23   -5.623 150.151 96.3       6.000
      1990  5 3 01140.34   -4.982 150.336 33.0       5.000
      1990  5 3 74542.55   36.402 140.632 60.9       5.400
      1990  5 3191426.63   -0.288 132.956 33.0       5.200
      1990  5 4 25923.72    1.507 123.645 33.0       5.000
      1990  5 5 12620.70  -17.990-178.146524.3       5.200
      1990  5 5 72119.45   40.746  15.850 26.3       5.300
      1990  5 5154312.72  -24.275-179.820521.7       5.100
      1990  5 5171859.32   16.124  54.133 10.0       5.000
      1990  5 6164610.74  -35.516-104.396 10.0       5.100
      1990  5 6182455.44   45.235 128.320 33.0       5.100
      1990  5 7 51737.88   36.008 100.342 33.0       5.300
      1990  5 71646 9.93  -35.272-105.125 10.0       5.200
      1990  5 7205140.61   15.564 147.708 35.1       5.000
      1990  5 8 0 139.69    6.951 -82.635  5.7       6.300
      1990  5 8 140 3.63  -17.015 168.448225.9       5.100
      1990  5 8 955 4.68    1.262 123.823 33.0       5.000
      1990  5 9 23858.22   57.620-155.491 78.3       5.300
      1990  5 9 42110.66  -56.417 -27.044 33.0       6.100
      1990  5 9 44250.42   -6.051 147.696 77.4       5.300
      1990  5 9143336.35  -11.437 166.437 33.0       5.000
      1990  5 916 833.48   12.728 -88.479 58.4       5.100
      1990  5 9185512.00  -18.814-173.920150.1       5.200
      1990  5 9194643.52   -2.843 119.565 33.0       5.300
      1990  5 9223818.62  -61.937 161.562 10.0       5.100
      1990  510 05847.65  -54.874 146.563 10.0       5.400
      1990  510 81435.25   -6.178 146.848104.6       5.400
      1990  511131020.34   41.780 130.881580.0       5.700
      1990  511194224.57    1.292 123.589 33.0       5.200
      1990  511234352.35   17.333-100.677 43.9       5.300
      1990  512 450 9.07   49.040 141.881610.8       6.400
      1990  512211528.72   -6.089 149.779 79.3       5.300
      1990  513 42310.86  -40.260 176.141 29.5       6.000
      1990  514 65211.52  -37.361  47.870 10.0       5.300
      1990  514115426.83  -23.759 179.949500.0       5.000
      1990  5142134 4.87  -35.836 -71.378 80.6       5.700
      1990  515 5 7 4.56   -4.910 -80.975 33.0       5.000
      1990  515142520.75   35.986  70.443116.7       6.000
      1990  515152128.89   -2.965  35.848 10.0       5.500
      1990  515162420.63   -3.006  36.001 10.0       5.400
      1990  515163335.47    5.723 126.236 33.0       5.000
      1990  515183140.02    1.114 123.780 33.0       5.600
      1990  51520 733.51  -10.148 161.064 70.2       5.400
      1990  515213330.88  -31.835-178.048 48.2       5.600
      1990  515222959.37   36.119 100.132 13.9       5.600
      1990  516 52419.11   -5.665 150.214 77.2       5.600
      1990  516133235.15   10.783 -85.613 72.1       5.100
      1990  517 1 4 7.50   37.062 136.934267.2       5.200
      1990  517 94012.55   13.368 121.226 33.0       5.100
      1990  51711 324.64  -18.166 -69.819109.0       5.400
      1990  5171321 7.35   38.372  74.376115.1       5.400
      1990  517155957.07  -25.322 178.034618.4       5.500
      1990  5172328 0.95   26.614 127.814 39.0       6.100
      1990  518 14419.69  -15.208 168.191 33.0       5.000
      1990  518 33035.50   -4.119 102.610 15.0       5.100
      1990  519 64635.79   40.117 143.454 32.1       5.300
      1990  519 928 2.05    1.342 123.910 33.0       5.200
      1990  519132740.71   13.073 143.837137.6       5.400
      1990  520 22159.78    5.041  32.109  7.2       6.600
      1990  520 64346.04   43.867 147.559 22.7       5.700
      1990  520 73236.95  -18.089-175.337232.1       5.700
      1990  520 910 2.49   28.423  83.354 33.0       5.000
      1990  520 95347.88  -32.417 179.596345.5       5.600
      1990  52113 0 9.76   53.580-163.488 33.0       5.600
      1990  521132436.63   -8.112 109.067 27.4       5.500
      1990  521205922.78  -32.993-178.241 33.0       5.300
      1990  522132532.60  -36.428 -97.525 10.0       5.400
      1990  522175942.75   -4.570 103.296 71.9       5.200
      1990  522203538.07   19.792 -76.067 10.0       5.000
      1990  523125225.48   20.559 120.852 36.4       5.600
      1990  523193514.63   -7.332 128.771127.5       5.400
      1990  523205937.14  -18.836 168.855160.5       5.500
      1990  524 4 632.17  -17.874-178.603589.7       5.200
      1990  52412 937.57   28.080 129.864 18.1       5.000
      1990  524193443.41    5.289  31.859 10.0       6.100
      1990  52420 0 7.07    5.345  31.908 10.0       6.600
      1990  52420 923.15   -7.363 120.328588.1       6.300
      1990  524203024.04   -7.468 127.465 33.0       5.100
      1990  5242216 3.66    5.483  31.932 10.0       5.400
      1990  525 04231.89    5.370  31.747 10.0       5.400
      1990  525 2 329.48   -2.985 130.209 33.0       5.800
      1990  52510 011.14   -6.406 129.017268.1       5.000
      1990  526 25734.68    1.329 123.355 33.0       5.300
      1990  526 51111.86  -16.989 168.402212.1       5.300
      1990  526 75958.33   41.654  88.736  0.0       5.400
      1990  526132556.89   12.426 121.931 36.5       5.100
      1990  526142240.61    5.090  31.497 10.0       5.400
      1990  527 3 341.27    6.958 -82.662 10.0       5.200
      1990  527 32247.65   15.451 147.697 23.9       5.400
      1990  527122445.99   15.549 147.817 33.0       5.100
      1990  52714 036.41   12.665 120.961 33.0       5.200
      1990  527182757.12   40.923  44.384 10.0       5.000
      1990  527214932.73   74.257   8.686 10.0       5.600
      1990  527215256.06    7.672 -37.112 10.0       5.200
      1990  528112848.96  -20.757-178.077496.6       5.800
      1990  528151157.90   -7.109 127.252298.5       5.100
      1990  528161159.49   43.877 147.284 36.0       5.300
      1990  5282139 8.98   -4.676 152.201105.3       5.200
      1990  529123527.42   15.967 120.263 33.0       5.300
      1990  529183113.66   56.971-153.518 33.0       5.800
      1990  530 234 7.02   -6.033 -77.267 33.0       6.000
      1990  530 92222.75   -8.893 122.542 88.0       5.200
      1990  5301040 6.25   45.873  26.666 90.1       6.700
      1990  530164556.69   -5.069 152.162 69.4       5.200
      1990  530164928.28   -6.023 -77.163 33.0       5.300
      1990  531 01748.46   45.798  26.754 96.2       6.100
      1990  531 73527.30   17.253-100.750 25.7       5.800
      1990  6 1 12210.98   35.531 140.445 61.9       5.800
      1990  6 1 44549.95   -5.094 147.859 41.9       5.400
      1990  6 111 022.87   15.979 147.410 33.0       5.100
      1990  6 111 831.86  -25.486-176.863 33.0       5.400
      1990  6 11114 8.80   15.930 147.304 33.0       5.200
      1990  6 1181446.43   -5.484 154.087160.8       5.200
      1990  6 2 03235.23   32.432  92.743 13.0       5.600
      1990  6 2 45757.32    0.993 122.711 33.0       5.100
      1990  6 2172958.74  -21.819-138.940  0.0       5.300
      1990  6 3145648.59  -42.643 -82.890 10.0       5.000
      1990  6 3162342.32    5.437  32.079 33.0       5.000
      1990  6 4 92632.30  -14.430 167.911 16.8       5.000
      1990  6 4103334.85  -11.147 163.004 44.0       5.100
      1990  6 5134251.08   35.414 139.074120.0       5.300
      1990  6 6 2 1 8.09   -6.110 -77.180 25.3       5.200
      1990  6 6234742.48   -9.515 119.680 33.8       5.000
      1990  6 7 71443.26  -20.027  66.390 10.0       5.100
      1990  6 7 92518.84   -3.592 144.493 28.4       5.800
      1990  6 7132438.87  -16.029-176.921 33.0       5.200
      1990  6 7234024.09   -1.372 -24.205 10.0       5.000
      1990  6 8134922.69  -17.548 -71.845 26.0       5.500
      1990  6 815 510.24  -18.700-178.901498.5       5.600
      1990  6 8164319.60   52.473-169.437 33.0       5.100
      1990  6 8213738.47   -9.065 120.258 33.0       5.600
      1990  6 9 11434.15   -6.120 -77.242 25.6       5.500
      1990  6 9172452.56   40.244 -29.699 10.0       5.000
      1990  6 9213820.37    1.240 123.263 36.0       5.300
      1990  610 5 054.80   62.360-124.239 10.0       5.100
      1990  610104224.75    4.642 127.802 33.0       5.100
      1990  611 0 154.47   -7.204-118.870 33.0       5.200
      1990  611 543 3.36   -7.356-118.851 33.0       5.300
      1990  612184525.34   -6.535 147.523 33.0       5.000
      1990  613 244 7.83    9.466 138.195 20.4       5.500
      1990  61316 0 0.00   37.262-116.420  0.0       5.700
      1990  613164153.41    6.395 126.393 77.6       5.600
      1990  61323 043.99    5.767 124.603 77.4       5.000
      1990  614 35524.17   56.841-155.222 48.3       5.000
      1990  614 62836.10   18.198 147.231 33.0       5.000
      1990  614 74053.12   11.326 122.172 14.7       6.000
      1990  614 83112.23   11.633 121.875 33.0       5.200
      1990  6141149 0.63   11.535 122.358 10.0       5.000
      1990  614124728.39   47.892  85.120 54.1       6.200
      1990  614141810.69   47.884  85.148 37.2       5.300
      1990  614202217.42    6.333 126.330 91.7       5.100
      1990  614215647.51   11.271 122.235 19.2       5.200
      1990  61423 431.94  -30.186 -69.162 96.2       5.000
      1990  615 81223.27   -5.054 152.162 33.0       5.600
      1990  615132124.54   10.777 126.952 33.0       5.000
      1990  61515 449.38   -6.243 131.025 33.0       5.000
      1990  616 13411.50  -22.489-176.796141.7       5.100
      1990  616 21621.28   39.211  20.536 33.8       5.500
      1990  616 45343.74   28.000 128.025 36.7       5.600
      1990  61614 030.51   -7.484 128.844146.2       5.000
      1990  617 45146.13   27.429  65.790 19.1       5.800
      1990  6171646 3.83  -38.464 -16.382 10.0       5.400
      1990  617171742.44   27.344  65.617  9.6       5.300
      1990  617211526.17    3.870 125.642169.1       5.300
      1990  618 13559.59  -18.762-175.031 33.0       5.000
      1990  618 14440.70  -21.869 170.748126.8       5.000
      1990  618 42519.63    4.457 125.603142.7       5.300
      1990  618165255.12   -8.772 111.272 33.0       5.000
      1990  61819 257.17  -21.717 -68.409113.1       5.300
      1990  619 91558.58  -62.041 -55.646 10.0       5.100
      1990  619103443.12  -38.326 -16.384 10.0       5.100
      1990  61919 749.26  -20.880-178.908614.7       5.200
      1990  6192133 3.18    5.892 125.345 87.0       5.000
      1990  619234140.24   54.548-161.954 33.0       4.900
      1990  620 83026.79   -6.928 155.620 95.7       5.100
      1990  620151728.93   -1.122 126.773 33.0       5.500
      1990  620162428.84  -38.554 -16.447 10.0       5.000
      1990  620184758.11    5.285  31.556 15.6       5.000
      1990  62021 0 8.57   36.961  49.414 10.0       6.300
      1990  620234843.83   36.647  49.848 10.0       4.700
      1990  621 2 851.30   36.783  49.739 10.0       5.400
      1990  621 64033.72   -5.700 149.298166.4       5.000
      1990  621 9 213.74   36.653  49.809 10.0       5.900
      1990  621143712.63   17.718 122.348 33.0       5.200
      1990  621151554.50   50.958-172.471 33.0       5.300
      1990  621193823.07  -21.187 174.739 85.4       5.000
      1990  622 74354.25  -14.879 167.817192.9       5.000
      1990  622114845.49  -19.643 -69.156103.2       5.300
      1990  622195620.94  -14.592 167.867 42.6       5.200
      1990  62220 632.69  -14.699 168.036 33.0       5.000
      1990  622211652.10   11.642 -86.152 28.4       5.000
      1990  622212043.76  -14.609 167.949 19.1       5.400
      1990  622214910.52  -14.529 167.901 33.0       5.500
      1990  622225957.28    1.771 127.200 33.0       5.400
      1990  623 5 146.66   -0.631 146.440 39.8       5.800
      1990  623 53121.47  -21.091 173.962 33.0       5.000
      1990  623 632 5.95    6.397 -72.882203.6       5.100
      1990  623131754.51    0.796 123.073 33.0       5.000
      1990  623144635.71  -14.523 167.904 33.0       5.300
      1990  623213822.46  -21.363-176.582208.6       6.300
      1990  624 52914.19    0.502 122.440 33.0       5.200
      1990  624 83525.40  -21.504-176.544193.2       5.600
      1990  624 94556.73   36.823  49.422 10.0       5.100
      1990  625 719 5.13   56.183 164.528 30.2       5.000
      1990  625195339.51   -3.465 130.989 33.0       5.200
      1990  625224618.60    4.565 127.477 33.0       5.100
      1990  626 05351.14   -3.461 100.706 27.0       5.200
      1990  626 23621.36    1.230 123.046 33.0       5.100
      1990  62612 830.26  -21.968-179.518593.0       5.800
      1990  626175958.29  -22.192-138.841  0.0       5.500
      1990  626212437.44   -4.186 136.085 33.0       5.100
      1990  626215445.67   34.854 139.062148.3       5.200
      1990  627 2 045.25   52.346-174.026 33.0       5.100
      1990  627 51014.51  -21.505-176.559193.4       5.200
      1990  627 527 6.87   -2.728 -79.711 10.0       5.300
      1990  628121410.90   56.120 164.621 29.7       4.700
      1990  629 35329.72  -21.313-179.408617.9       5.600
      1990  629 63125.59  -28.355 -68.317123.0       5.300
      1990  629232533.96   15.658 147.894 33.0       5.000
      1990  630 941 2.57   28.484 -43.779 10.0       5.300
      1990  6301451 8.23    9.840 -84.411 10.0       5.100
      1990  630184918.21   44.356 149.265  8.2       5.200
      1990  630193128.80   -5.537 147.023190.0       5.100
      1990  630205145.42   44.623 149.193 33.0       5.000
      1990  7 1 95859.88   -3.226 102.218130.7       5.300
      1990  7 2182733.46  -11.890  65.667 10.0       5.400
      1990  7 2234743.56   37.125  72.918 33.0       5.000
      1990  7 3 74518.00   -6.143 149.970 33.0       5.000
      1990  7 3153819.00  -22.145-179.816577.8       5.000
      1990  7 3183213.84   35.926 140.113 76.3       5.000
      1990  7 4 22440.66   25.372 124.504120.4       5.700
      1990  7 4 73131.42   -2.871 127.093 33.0       5.100
      1990  7 4175958.44  -21.866-139.046  0.0       5.100
      1990  7 5 1 928.46   37.512  69.340 44.0       4.800
      1990  7 513 752.88    9.734 124.671 33.0       5.100
      1990  7 5224118.13    0.003 124.195 51.1       5.100
      1990  7 6 01623.41   -6.934 108.107 33.0       5.800
      1990  7 6 5 227.85   45.319 150.229 42.2       5.700
      1990  7 6111943.25    2.886 128.677227.5       5.000
      1990  7 6114238.60   -3.575 150.951443.1       5.500
      1990  7 6133932.42    1.047 121.463 33.0       5.300
      1990  7 6193452.11   36.823  49.312 33.0       5.200
      1990  7 715 022.32   -5.704 148.709157.2       5.300
      1990  7 7153724.54   12.192 120.655 27.1       5.500
      1990  7 7162748.07   -5.892 154.420 41.9       5.200
      1990  7 7203557.40  -15.474 168.116 35.8       5.200
      1990  7 81630 2.30  -17.702-178.969559.0       5.300
      1990  7 81729 8.53   -4.433 -12.336 10.0       5.100
      1990  7 9112217.09   34.915  26.749 33.0       5.100
      1990  7 9151119.53    5.358  31.664 10.0       6.000
      1990  710 05154.81    8.543-103.108 33.0       5.200
      1990  710 318 0.01  -10.291 161.138 69.4       5.800
      1990  710 63347.49  -43.925 169.133 10.0       5.000
      1990  710141910.89  -15.084-173.657 33.0       5.100
      1990  710182411.90  -30.441-177.786 33.0       5.400
      1990  710215121.42  -15.737 -75.547 35.8       5.100
      1990  711 046 0.63  -12.672 167.185 33.0       5.700
      1990  71113 724.86  -57.229 -25.544 62.5       5.500
      1990  7111514 7.08   59.331-136.663 33.0       5.600
      1990  711173445.19  -21.262-176.495230.3       5.100
      1990  7111948 9.50  -25.216 178.219600.0       5.500
      1990  711194825.76  -22.828 179.751602.8       5.400
      1990  711194913.49  -25.081 178.029579.4       5.400
      1990  712143825.31  -60.380 -19.134 10.0       4.900
      1990  7121956 5.54    1.715 127.120 33.0       5.000
      1990  71223 822.41   14.631 -60.459 26.6       5.500
      1990  7122350 5.42  -22.153-177.411246.9       5.000
      1990  713 81137.24   -6.269 154.841 56.4       5.600
      1990  713 83636.85  -13.240-112.300 10.0       5.100
      1990  713135027.07   12.928 -87.760 33.0       4.800
      1990  713142043.72   36.461  70.798217.7       5.600
      1990  714 34833.02  -10.458 161.422 94.7       5.500
      1990  714 55425.34   -0.001 -17.412 10.0       6.300
      1990  714 72439.69   -0.027 -17.571 10.0       5.800
      1990  714 95642.44   11.739 143.144 10.0       5.100
      1990  714161228.57   11.764 143.183 43.0       5.600
      1990  7141630 2.31   11.851 143.349 43.8       5.000
      1990  714184931.92  -17.381-174.322162.2       5.400
      1990  715 53242.21   52.888-168.322 64.7       5.200
      1990  715 72639.35   -6.578 105.036 33.0       4.800
      1990  715 95131.30   13.309 -45.102 10.0       5.100
      1990  71510 1 9.88  -23.106-175.356 68.0       5.500
      1990  715201324.36   -9.121 118.230 33.0       5.400
      1990  716 51112.53   32.328 142.236 47.1       5.000
      1990  716 71225.25   24.266 121.849 33.0       5.000
      1990  716 72634.40   15.658 121.227 24.8       6.600
      1990  716 74559.04   15.668 121.276 33.0       5.100
      1990  716 75345.55   14.963 120.963 33.0       5.400
      1990  716 8 049.12   16.089 120.670 33.0       5.100
      1990  716 83532.40   16.147 120.796 33.0       5.300
      1990  716 85023.02   16.415 121.063 33.0       5.200
      1990  716 916 7.47   16.330 120.874 33.0       5.200
      1990  716 929 6.50   16.354 120.445 18.2       5.600
      1990  716 93921.82   16.508 120.956 16.5       5.600
      1990  71610 813.44   36.118 141.365 33.0       5.000
      1990  716101257.32    9.186 125.479 33.0       5.300
      1990  716102424.48   16.417 120.995 33.0       5.100
      1990  716123510.70   39.307 141.961 64.4       5.000
      1990  71613 241.83   15.748 121.225 33.0       5.400
      1990  716133113.17   16.254 120.462 12.7       5.500
      1990  716145136.21  -32.437 -69.861105.1       5.600
      1990  71615 427.29   16.350 120.441 33.0       5.500
      1990  716161933.69   16.264 120.502 33.0       5.300
      1990  716191453.43   24.242 121.758 29.7       5.600
      1990  716194525.18   16.351 120.554 33.0       5.400
      1990  7162016 2.45   16.422 120.565 11.0       5.100
      1990  716203124.73   17.482 121.067 33.0       5.100
      1990  716212621.52   16.286 120.517 33.0       5.000
      1990  717 01840.27   15.314 147.131 33.0       5.400
      1990  717 4 523.32   -0.309 122.752106.3       5.100
      1990  717 61112.71   16.221 120.977 13.0       5.200
      1990  717 72025.17    1.020 121.243 33.0       5.100
      1990  71718 634.56   16.372 120.856 12.4       5.500
      1990  717211440.58   16.408 121.023  7.2       6.000
      1990  717214011.44   16.234 120.913 33.0       5.000
      1990  7172246 4.09   16.482 121.019 33.0       5.000
      1990  718 13511.72   16.463 121.038 15.3       5.200
      1990  718 15650.27   16.364 121.131 33.0       5.200
      1990  718 33928.46  -41.270 -88.901 10.0       5.000
      1990  718 51831.87   12.424 -87.707 76.8       5.100
      1990  718 71715.79   16.506 120.751 33.0       5.100
      1990  718 8 013.69   16.456 120.988 20.2       5.900
      1990  718112923.99   36.997  29.641 10.0       5.200
      1990  71813 855.97    1.258 126.815 33.0       5.000
      1990  718135646.64  -23.125 170.823 33.0       5.200
      1990  718135653.37  -24.999-176.335 33.0       5.300
      1990  718153924.53    0.477 125.354 33.0       5.100
      1990  7181638 1.05    0.929 126.916 10.0       5.200
      1990  718172140.23   -6.793 130.492 33.0       5.600
      1990  719 85510.68   16.224 121.080 33.0       5.000
      1990  719154421.71   17.299 121.082 33.0       5.000
      1990  720 4 525.49    4.713 -82.612 10.0       5.000
      1990  72015 218.80  -14.251 167.722 33.0       5.000
      1990  720151117.41   16.343 120.975 14.4       5.500
      1990  721 72336.65   16.344 120.893 33.0       5.500
      1990  7212110 6.07   -5.689 146.821205.8       5.200
      1990  722 12610.09  -18.982 168.608 44.1       5.100
      1990  722 6 3 7.48   16.424 121.049 33.0       5.500
      1990  722 72042.89   -4.979 146.122 17.9       5.100
      1990  722 91854.36   12.007 143.762 29.7       5.200
      1990  722 92618.06  -23.479 179.928565.4       5.900
      1990  722 95026.89  -23.426-179.971538.0       5.200
      1990  722 95337.07   15.971 120.960 33.0       5.100
      1990  7221120 9.66   16.532 121.046 33.0       5.400
      1990  722122658.79   12.049 143.775 22.8       5.400
      1990  722163218.03  -36.825  78.404 10.0       4.900
      1990  722181757.67   53.023 144.259 18.9       5.100
      1990  723 04859.35   16.619 120.618 18.5       5.200
      1990  723 44615.69   -5.705 110.936564.2       5.100
      1990  723 527 9.06    9.484 -84.546 33.0       5.000
      1990  723 722 1.69   15.465 121.548 33.0       5.000
      1990  723105732.16   -4.755 145.505 65.4       5.000
      1990  72318 253.59   11.210 122.337 33.0       5.500
      1990  723193312.29  -14.076 167.010141.7       5.300
      1990  723222043.94   16.052 119.686 33.0       5.000
      1990  724 53451.00  -22.926 -68.593 88.8       5.100
      1990  724 746 2.78   -4.712 102.874107.8       5.100
      1990  724175511.76   -3.797 151.415 10.0       5.000
      1990  724175948.24   32.878  48.264 10.0       5.300
      1990  725133716.31  -15.225-174.917292.4       5.000
      1990  725144242.11   53.663-156.749 48.8       5.700
      1990  726 41826.47   -7.421 127.788107.8       5.300
      1990  726 51543.89   -2.991  35.854 10.0       5.100
      1990  726 65359.20   27.188  65.490 43.0       5.800
      1990  726192739.62   -9.392 158.824 33.0       5.100
      1990  727 05457.04   16.059 -86.253 14.6       5.400
      1990  7271238 0.56  -15.319 167.396133.2       6.400
      1990  727145544.70  -22.880  69.508 10.0       5.100
      1990  727204131.20    5.057  32.004 10.0       5.000
      1990  728 35956.47   37.066 142.048 29.9       5.000
      1990  728 84251.00  -15.316 167.349110.5       5.500
      1990  7281646 2.54    5.211  32.655 10.0       5.400
      1990  72819 8 2.49  -13.806 167.079215.0       5.000
      1990  729 920 0.68   31.468 140.150 33.0       5.000
      1990  729152912.44   -4.927 -80.877 38.9       5.400
      1990  730 11317.39   29.933 130.364 69.2       5.000
      1990  730162454.05  -41.288 -88.337 10.0       4.900
      1990  731 21544.68   24.193 126.648 18.3       5.000
      1990  731 31946.57   42.354-126.716 10.0       5.700
      1990  731 42847.16  -10.785 162.074 82.4       5.000
      1990  731182549.76    3.739  95.335 22.8       5.300
      1990  8 1 245 0.18  -11.549 166.074 31.8       5.400
      1990  8 2 524 8.90  -31.613 -71.579 40.9       5.600
      1990  8 2 55814.01  -10.881 166.270 33.0       5.200
      1990  8 215 325.81   -6.549 105.320 33.0       5.300
      1990  8 3 83628.85  -15.232-173.141 36.7       5.100
      1990  8 3 915 4.15   47.949  84.958 18.9       6.100
      1990  8 3102845.32  -15.699-173.924 33.0       5.200
      1990  8 3115712.22   32.803  48.237 33.0       5.100
      1990  8 315 717.18   32.988  48.364 33.0       5.000
      1990  8 4 5 537.22   -0.062  99.598 74.5       5.400
      1990  8 4 72929.08   39.551  20.367 43.6       5.000
      1990  8 4 83151.52   26.934 125.356225.1       5.100
      1990  8 4 91928.93    1.269 123.116 33.0       5.200
      1990  8 411 6 0.27   25.133 141.169171.4       5.100
      1990  8 5 13457.50   29.513 137.596516.1       5.900
      1990  8 5 31610.20   27.503 141.593 47.7       5.400
      1990  8 5 33624.33   36.300 141.083 41.7       5.700
      1990  8 5 713 1.83   35.088 139.042 37.0       5.400
      1990  8 5144751.01   51.670-175.259 33.0       5.200
      1990  8 5174232.29   -1.013 -13.962 10.0       5.600
      1990  8 5184821.66    6.006 126.750129.5       5.200
      1990  8 6 23041.14   16.204 120.509 39.4       5.300
      1990  8 6112848.31  -10.365 -75.149 33.0       5.000
      1990  8 6162317.30  -16.153-173.447 82.6       5.200
      1990  8 6203044.92  -56.079 -27.654111.4       5.600
      1990  8 7 714 1.26  -19.015  65.666 10.0       5.100
      1990  8 71922 7.65  -19.264  64.743 10.0       5.100
      1990  8 7204922.16  -19.079-175.939282.6       5.000
      1990  8 8111053.51   35.870 139.451155.8       5.000
      1990  8 8144238.74    8.471-103.259 10.0       5.200
      1990  8 8195441.34  -14.017 166.298 33.0       5.000
      1990  8 9 65651.50  -13.155-112.048 10.0       5.100
      1990  8 9 73354.47   -7.270 129.167131.1       5.000
      1990  810 15119.59   -0.064 122.924176.6       5.300
      1990  810 53752.08  -20.166 168.277 46.9       5.900
      1990  810112332.75   15.943 -93.969 80.3       5.100
      1990  810154429.39    0.315 126.163 37.9       5.900
      1990  810174739.35  -19.677-177.520391.9       5.800
      1990  810211148.72    6.535  60.243 10.0       5.400
      1990  811 24518.97   -6.069 130.389126.5       5.100
      1990  811 25954.93   -0.071 -78.528  5.0       5.000
      1990  811 8 015.27  -22.104 171.079132.9       5.100
      1990  81121 940.60   16.466 120.364 33.0       5.200
      1990  812 0 930.13   -6.044 130.449128.8       5.300
      1990  812 035 3.35    1.014 -28.852 10.0       5.200
      1990  812 75155.23   13.281 143.946146.3       5.500
      1990  812212522.79  -19.421 169.050144.4       6.400
      1990  81323 420.89   60.197-151.977 87.4       5.300
      1990  814 05038.82   26.983  65.988 19.7       5.200
      1990  814 61055.65  -20.091 168.303 40.7       5.100
      1990  814 93129.43    8.064 127.159 33.0       5.100
      1990  814151329.23   35.619 -35.645 10.0       5.500
      1990  8141559 7.88   53.111 158.639 33.0       5.100
      1990  814194528.10   51.303-178.943 33.0       5.100
      1990  815132336.33  -18.814 -69.377119.8       5.100
      1990  815155440.33  -40.322 176.644 32.0       5.300
      1990  815212443.30   -4.120 -80.641 33.0       5.000
      1990  81523 855.80   43.741 143.279158.7       5.400
      1990  816 43217.84   44.735  35.036 26.9       4.600
      1990  816 44153.82   -5.176 130.417 67.4       5.100
      1990  816 45957.72   41.586  88.799  0.0       6.200
      1990  8161157 0.91   45.756 149.833 33.0       5.100
      1990  8161426 5.12    3.924  95.136 33.0       5.100
      1990  816191218.54  -11.145 161.949 33.0       5.200
      1990  817 256 5.66    3.373 122.485552.9       5.200
      1990  81713 717.60  -11.183 162.018 33.0       5.900
      1990  817214611.48  -11.160 162.063 33.0       5.500
      1990  818104722.14  -40.300  77.784 10.0       4.700
      1990  818125448.43  -40.293  78.253 10.0       5.000
      1990  8181355 7.03  -40.214  78.251 10.0       5.600
      1990  818185236.55    7.467  93.979 21.2       5.500
      1990  819 8 344.17  -20.499-178.143550.8       5.000
      1990  819153247.56   29.839  99.216 33.0       4.700
      1990  819174459.58  -34.639-107.688 10.0       5.300
      1990  819204647.52   17.197 120.132 33.0       5.300
      1990  827 41159.75  -26.109-177.544 33.0       5.200
      1990  827 41256.41    0.528 126.247 33.0       5.000
      1990  827 71525.71   17.773 -61.694 46.8       5.100
      1990  827105251.00   29.312 142.033 21.1       5.200
      1990  827151712.71   -6.862 125.408514.8       5.800
      1990  828 2 250.17   52.223-168.512 33.0       5.200
      1990  828 31652.75  -19.433-175.828243.3       5.500
      1990  828 52813.82  -16.491 178.170 33.0       5.000
      1990  828 858 6.64  -19.829 -70.089 85.3       5.200
      1990  829 24135.13   27.187  92.797 33.0       5.000
      1990  829 6 218.03   -4.850 153.240 66.9       5.200
      1990  829204422.81   11.732  95.068 24.9       5.100
      1990  8292336 6.63   12.064 140.523 33.0       5.100
      1990  830155429.53   16.038 -47.966 10.0       5.600
      1990  830161447.30   16.018 -47.862 10.0       5.200
      1990  830163719.44   12.067 140.522 33.6       5.100
      1990  830173647.35   -8.557 -74.379157.7       5.000
      1990  8301833 0.53    6.176 -82.705 10.0       5.100
      1990  831 01356.49   12.011 140.608 47.6       5.100
      1990  9 2 42649.70   -0.123 -80.237 25.1       5.800
      1990  9 2 5 716.76   -0.077 -80.159 33.0       5.000
      1990  9 2 62925.33   26.614  92.677 51.3       5.200
      1990  9 210 651.87  -41.220 -90.068 10.0       5.000
      1990  9 2125117.82   -3.097 148.044 41.3       5.300
      1990  9 213 5 8.78   -3.141 148.132 32.6       5.300
      1990  9 3 039 1.81   -3.139 148.156 52.8       5.300
      1990  9 3 1 245.26  -14.445 167.877 33.0       5.000
      1990  9 3224453.75  -25.777-175.956 33.0       5.200
      1990  9 4 148 5.08   -0.352  28.989 33.0       5.000
      1990  9 4 422 8.62   -5.165 152.550 33.0       5.200
      1990  9 4 8 3 4.24   19.809 -75.693 33.3       5.200
      1990  9 4132718.34   51.601-173.847 52.8       5.000
      1990  9 4154814.33   55.115 161.747 39.6       5.000
      1990  9 4195713.10   -7.202 146.081171.2       5.100
      1990  9 4231511.52  -31.201 -68.957112.1       5.400
      1990  9 5 711 2.62    8.472 126.429 63.4       5.500
      1990  9 6213224.10  -26.692  67.944 10.0       5.200
      1990  9 7 01226.17    5.443  31.638 10.0       5.200
      1990  9 7113445.66  -31.087-178.496 87.5       5.500
      1990  9 716 920.19  -24.276 -66.997170.3       5.500
      1990  9 7173636.58   -4.437 147.507 33.0       5.000
      1990  9 718 525.61   -1.094 124.609 59.0       5.500
      1990  9 8113919.63  -14.012 -14.488 10.0       5.100
      1990  9 8184629.65   -7.341 155.913 29.3       5.200
      1990  9 8185145.55  -24.414-177.165132.6       5.500
      1990  9 8193319.69   27.480  66.098 33.7       5.600
      1990  9 8202148.32  -57.877 -25.453 33.0       5.100
      1990  9 82032 0.96  -20.496-174.327 57.0       5.700
      1990  9 9 0 849.42  -19.905 -69.507116.6       5.400
      1990  9 9 030 8.46   56.179 -34.460 10.0       5.000
      1990  9 9 21451.07   56.656 -34.385 10.0       5.400
      1990  9 9 24232.00  -33.167-178.933 33.0       5.000
      1990  9 9 25026.60   28.044 139.370535.5       5.000
      1990  9 9 43942.40  -21.426 -68.548117.5       5.000
      1990  9 9 45243.65   47.259 152.195 33.0       5.100
      1990  9 9 53541.98   -5.163 151.794 37.2       5.700
      1990  9 9 62457.49   56.489 -34.430 10.0       5.100
      1990  9 9 63522.35   56.336 -34.506 10.0       5.000
      1990  9 9 721 4.43   14.652 146.778 40.7       5.100
      1990  9 9222927.18    1.120 123.002 33.7       5.500
      1990  910 35124.26   46.589 155.477 23.3       5.300
      1990  910 730 7.56   52.266-178.708143.3       5.200
      1990  910 82735.63   16.289 120.107 51.0       5.000
      1990  910121736.52   70.764 -13.836 10.0       5.000
      1990  911 14556.40  -17.570-177.671556.4       5.200
      1990  91114 9 4.23   22.635 120.946 49.8       5.800
      1990  9111526 8.35   -3.249 101.987 33.0       5.000
      1990  912 03923.06   -0.445  98.411 22.3       5.000
      1990  912 23519.01  -37.029 177.825 33.0       5.300
      1990  912 94226.59    4.287  96.381 33.0       5.100
      1990  912102147.94    6.331 126.408 78.4       5.500
      1990  912152835.68   15.175  59.288 10.0       5.500
      1990  912201618.63  -60.475 -65.086 10.0       5.500
      1990  913 25846.53   33.509 141.015 50.6       5.400
      1990  91317 850.58  -36.475 -97.798 33.0       5.000
      1990  914 11825.30   52.111-168.608 33.0       5.100
      1990  914 7 0 2.39   51.439-164.096 33.0       5.600
      1990  914 92019.12  -60.698 -22.830 33.0       5.800
      1990  91416 813.44  -30.579-177.818 33.0       5.000
      1990  914204018.32   13.397  51.441 10.0       5.400
      1990  915 31116.34   -4.419 144.097112.2       5.200
      1990  915122144.67  -24.284-117.527 10.0       5.000
      1990  915192253.32   -5.301 133.682 30.1       5.100
      1990  9152252 4.08  -15.126-173.537 33.0       5.200
      1990  91523 742.68   64.713 -17.509 10.0       5.400
      1990  916 34217.31   -6.180 146.811111.7       5.600
      1990  916105458.40   -6.999 124.962549.4       5.000
      1990  917115720.99   -5.943 103.789 33.0       5.700
      1990  917134726.33  -53.297 159.438 10.0       5.900
      1990  917184153.93    5.632 124.706 33.0       5.200
      1990  918 31839.54   51.432 177.978 40.9       5.600
      1990  919 05717.53   -5.678 145.962 33.0       5.100
      1990  920 73711.67  -17.829-178.838600.0       5.000
      1990  920231340.65   41.726-126.930 10.0       5.200
      1990  921 319 1.65  -12.887 165.810 33.0       5.100
      1990  921 34823.26  -10.107 161.191 33.0       5.400
      1990  92116 822.36   30.076  79.901 38.5       5.100
      1990  922205356.85   15.349 119.276 33.0       4.700
      1990  923 65032.65  -15.038-173.654 33.0       5.500
      1990  92311 124.71  -15.890 -73.467 33.0       5.100
      1990  923174543.73  -55.987 -27.177 33.0       5.400
      1990  9231754 6.37  -17.797 167.606 33.0       5.400
      1990  923203349.77   -6.734 130.373 33.0       4.800
      1990  9232113 6.76   33.223 138.732 10.0       6.100
      1990  92322 9 4.31   33.225 138.674 10.0       5.500
      1990  923225238.24  -17.797 167.716 33.0       5.000
      1990  924 14421.84  -17.617 167.764 33.0       5.000
      1990  924 158 5.94  -17.514 167.680 58.5       5.100
      1990  924235553.44   15.487 119.868 70.2       5.000
      1990  925 55111.34  -27.206-179.076374.7       5.000
      1990  926132416.25   -3.959 102.404 33.1       5.500
      1990  926153240.32   29.088  60.910 33.0       5.400
      1990  926154044.40  -36.302-100.404 10.0       5.100
      1990  926195437.23  -16.263-172.887 33.0       5.000
      1990  926201039.11  -15.468-173.372 33.0       5.100
      1990  92623 824.10  -28.050  26.693  5.0       5.600
      1990  92721 738.70   51.692 176.312 36.3       5.200
      1990  927211232.83   47.884  84.977 34.1       5.100
      1990  928165059.26  -41.186  85.484 10.0       5.000
      1990  928194448.11  -13.427 166.969179.7       6.000
      1990  928204340.79   51.216-176.753 33.0       5.000
      1990  928225713.79   34.955 134.265 24.2       5.000
      1990  92912 154.79  -33.378  77.496 10.0       5.000
      1990  929123233.37   -5.540 141.849 24.5       5.000
      1990  929161127.53   51.355-178.258 33.0       5.300
      1990  929213943.07   13.104 145.356 48.2       5.300
      1990  930 315 2.08   13.003 145.433 39.4       5.100
      1990  930 61317.05   13.060 145.296 53.0       5.100
      1990  930 64922.87   52.712 160.683 33.0       4.800
      1990  93019 5 2.54   24.240 125.231 34.5       5.900
      1990 10 1144426.59  -30.368-177.699157.1       5.100
      1990 10 2 74828.77  -17.490 167.699 29.4       5.200
      1990 10 2 8 827.67  -17.527 167.667 27.6       5.300
      1990 10 215 649.69  -23.958-174.770 42.9       5.900
      1990 10 4 34729.72  -17.585-178.867553.3       5.400
      1990 10 4234831.47  -41.449 175.000 39.0       5.600
      1990 10 5154254.08   47.245 152.907 33.0       5.100
      1990 10 6 24116.28  -41.509 175.294 41.7       5.700
      1990 10 6 9 8 9.01   -2.576  67.874 10.0       5.600
      1990 10 610 230.92   13.410 120.225 33.0       5.100
      1990 10 6142113.88    3.699  62.234 10.0       5.100
      1990 10 61433 1.18   36.451 140.595 68.2       5.100
      1990 10 7 44554.48  -28.812-176.928 60.0       5.200
      1990 10 7 52930.92  -29.161-176.569 33.0       5.000
      1990 10 7 71544.39   18.969 -62.487 29.7       4.700
      1990 10 71132 6.53  -56.177 -26.782 33.0       5.600
      1990 10 8 323 6.61  -10.348 162.717 33.0       5.000
      1990 10 817 0 0.68   -9.141 110.752 33.0       5.000
      1990 10 823 336.20  -13.259 167.040166.8       5.100
      1990 10 8234242.74   44.096  19.280 16.9       5.100
      1990 10 9 05827.41  -16.304-175.167354.7       5.000
      1990 10 9104245.80  -58.657 -25.162 33.0       5.100
      1990 10 918 511.22   -3.468 100.925 33.0       5.500
      1990 1010 1 0 6.50  -19.340 -66.551270.9       5.800
      1990 1010 1 135.10   -4.914 126.586 33.0       5.200
      1990 1010 55458.03  -23.355 178.867593.6       5.900
      1990 1010 73532.20   19.533 146.638 33.0       5.000
      1990 1010 745 8.35   -1.547  99.564 58.8       5.100
      1990 1010 82253.38   27.231 140.028383.9       5.100
      1990 1010132259.58  -23.196 179.127628.6       5.200
      1990 1010153216.42   29.181 132.051 33.0       5.100
      1990 1011 42524.25  -33.700 -72.060 29.8       5.200
      1990 1011135659.91   32.818  48.312  9.0       5.400
      1990 1011151445.01   18.723 -69.392100.1       5.400
      1990 1011204853.64   -3.390 146.622 25.4       5.100
      1990 1012 53428.01   27.764 130.807 33.0       5.100
      1990 10121730 0.08   37.248-116.494  0.0       5.600
      1990 1012192322.69  -55.912 -27.732 33.0       5.300
      1990 1013 02023.22   15.704 147.969 37.5       5.700
      1990 1013 42827.32    9.045 122.731 24.6       5.000
      1990 1013201513.46    4.256  95.275 73.5       5.000
      1990 101322 123.91  -19.513-171.559 33.0       5.200
      1990 1013225333.58  -23.174 179.008578.7       5.000
      1990 1014 15844.23  -17.408-179.103569.0       5.100
      1990 1014182836.63  -17.857-178.668588.3       5.100
      1990 1015 13544.70   -2.198  92.283 33.7       5.900
      1990 1015 63020.19   15.279 -46.356 10.0       5.200
      1990 1015114639.87   -7.205 122.973566.6       5.200
      1990 1015195019.18  -10.100 114.631 33.0       5.400
      1990 1016 61314.80   49.018 155.130 92.7       6.100
      1990 101617 912.35  -12.241 167.607 33.0       5.100
      1990 1016233845.12  -28.780-177.535 33.0       5.300
      1990 1017121627.61  -25.588-176.297 33.0       5.500
      1990 1017143014.91  -10.991 -70.780624.0       6.700
      1990 1017151218.83   -9.227 -71.056600.0       5.300
      1990 1017232439.87  -16.623 -71.349 53.2       5.000
      1990 1018 3 651.36   -7.381 129.292 33.0       5.200
      1990 1018191216.08   17.640 -62.186 54.6       5.200
      1990 1018222115.06   -3.425 143.443 33.0       5.500
      1990 1018232217.92   -2.063  99.954 32.3       5.300
      1990 1019 14930.99   36.572 139.340120.3       5.000
      1990 1019 239 4.16   -7.123 129.410 81.6       5.100
      1990 101916 348.03  -24.023 179.113550.9       5.100
      1990 1019184855.72   10.822 125.991 33.0       5.000
      1990 1020 8 730.51   37.068 103.744 33.0       5.500
      1990 102010 130.39   -7.709 -74.420154.8       5.100
      1990 1020151330.38  -27.824-176.851 33.0       5.000
      1990 10211032 0.81  -18.451-178.107534.7       5.000
      1990 1021131853.32   -3.488 136.559 68.4       5.100
      1990 1021151043.60   -4.014 -77.306116.4       5.700
      1990 102119 548.14  -20.757-178.071499.4       5.200
      1990 1021205146.42    0.535 126.668 33.0       5.000
      1990 1021225327.39   -8.848 123.929 57.6       5.100
      1990 1022122136.00   13.545 120.813 33.0       5.100
      1990 1022143522.12  -16.311-173.162 30.6       5.600
      1990 1023 4 8 1.81  -21.731-179.498599.8       5.200
      1990 1023112358.99  -16.516-173.601 93.3       5.000
      1990 1023151428.70   -5.590 153.959 54.6       5.400
      1990 1023201514.17  -30.397-178.036192.1       5.200
      1990 1024 61520.70   38.047-119.157 12.0       5.200
      1990 1024121816.11  -15.785-172.069 31.2       5.400
      1990 1024145758.03   73.364  54.827  0.0       5.600
      1990 102423 943.01   33.609 141.050 71.2       5.300
      1990 1024233815.20   44.096  83.883 20.1       5.400
      1990 1024234657.73   44.116  83.871 21.6       5.400
      1990 1025 324 8.48   23.818-108.831 10.0       5.000
      1990 1025 45346.50   35.190  70.740  6.0       6.100
      1990 102511 139.76    8.298 126.499 53.3       5.900
      1990 1025163336.06   -6.200 154.921165.3       5.800
      1990 1026 54936.79  -35.087 -16.206 10.0       5.100
      1990 1026 6 415.26  -35.388 -16.007 10.0       5.200
      1990 1026181735.58   56.166 110.110 20.9       5.100
      1990 1027124720.32   18.267 -63.323 62.7       5.100
      1990 102715 756.28   -1.008 129.129 33.0       5.100
      1990 1027191643.32    1.432  99.032 33.0       5.000
      1990 1028 653 1.44   49.663 155.942 47.4       5.400
      1990 1028 741 9.04   -2.708  88.266 10.0       5.200
      1990 1028155721.92   -7.374 128.375130.6       5.200
      1990 102816 340.46  -58.073 -22.914 33.0       5.300
      1990 1029 026 0.75  -63.505 172.341 10.0       5.000
      1990 1029 1 5 2.55  -15.264-173.060 42.3       4.900
      1990 1029 22128.55   18.951-102.005 99.0       5.000
      1990 1029 54728.42  -63.685 172.707 10.0       5.200
      1990 1029 64241.64  -55.960-143.201 10.0       5.300
      1990 1030 4 516.06   14.723 147.008 40.9       5.000
      1990 1030 429 2.86  -21.744 169.958 33.0       5.000
      1990 1030 730 6.26    3.754 123.197544.1       5.200
      1990 1031143926.19  -26.771 -70.409 59.5       5.600
      1990 1031151511.55   52.067 158.765 33.0       5.000
      1990 11 1 15644.71  -55.979-143.150 10.0       5.300
      1990 11 1 33943.76   -3.530 139.273 33.0       5.700
      1990 11 1 4 318.29   -6.645 125.695500.4       5.100
      1990 11 1 6 652.74   -4.542-104.889 10.0       5.100
      1990 11 1175227.23  -17.981-178.511609.1       5.000
      1990 11 2 14130.11  -23.424 179.940618.6       5.000
      1990 11 2 72236.44  -21.161-174.503 33.0       5.600
      1990 11 211 9 9.75   14.918 144.152 33.0       5.000
      1990 11 2125017.36   41.175 142.224 66.4       5.300
      1990 11 2205927.21  -27.052 -63.369567.9       5.000
      1990 11 3 03129.31  -21.371  33.154 10.0       5.000
      1990 11 3112019.42   14.671  54.301 10.0       5.100
      1990 11 3141750.41  -17.944-178.629608.0       5.200
      1990 11 3163955.67   39.034  71.437 33.0       5.500
      1990 11 320 019.73   -7.485 128.204121.9       5.400
      1990 11 4125939.63  -27.929 -66.583156.0       5.100
      1990 11 4181342.44  -15.703 -72.697114.0       5.400
      1990 11 41826 8.13    0.770 125.212 33.0       5.300
      1990 11 422 445.38   51.210 178.893 33.0       5.100
      1990 11 42223 6.55   12.981 145.184 53.7       5.400
      1990 11 5132253.73  -17.520 168.120 34.1       5.200
      1990 11 5153413.37  -43.658 -16.126 10.0       5.300
      1990 11 6 04035.73  -20.346-178.837619.9       5.300
      1990 11 6 54622.44   -8.086 117.956174.4       5.200
      1990 11 6145030.59  -37.710 176.694133.0       5.000
      1990 11 6172754.67   -7.629 159.178 40.4       5.500
      1990 11 6184554.14   28.234  55.455 24.5       6.200
      1990 11 6193020.35   28.282  55.348 19.5       5.400
      1990 11 6201430.97   53.468 169.929 32.1       6.400
      1990 11 7143624.95    5.634 125.247 50.4       5.500
      1990 11 7164840.32  -20.502-178.450552.2       5.400
      1990 11 719 528.94  -55.933 -27.465 53.2       6.000
      1990 11 8 7 612.95   -9.961 116.484 33.0       5.100
      1990 11 8101547.92  -28.186-176.428 49.2       5.500
      1990 11 8131255.04   11.759 -85.880162.2       5.000
      1990 11 8141038.17   -8.665 108.861 41.1       5.100
      1990 11 81456 0.60  -14.032  66.200 10.0       5.000
      1990 11 8164922.13  -14.026 170.538 33.0       5.100
      1990 11 9151046.70   11.925 143.687 43.5       5.000
      1990 11 9191339.80   30.874  86.395 10.0       5.000
      1990 1110113029.03   12.194  93.819 33.0       5.400
      1990 1110154122.95  -20.964-179.105638.8       5.200
      1990 111019 555.74   44.310 142.210 28.3       5.200
      1990 1111 31944.26   39.201  71.824 33.0       5.100
      1990 1111 74823.03   31.006 141.650 44.3       5.400
      1990 11111510 0.42    0.315 122.162 33.0       5.100
      1990 11112359 3.86   24.147 121.751 33.0       5.400
      1990 1112 41254.74   -5.971 130.341101.6       5.100
      1990 1112 55253.60   -4.763 154.359446.2       5.000
      1990 1112111950.78   36.391  71.146238.1       5.000
      1990 1112122849.04   42.942  78.083  5.0       5.900
      1990 111216 048.77   40.282  51.598 33.0       5.100
      1990 1112163838.26  -15.314 167.361 63.7       5.000
      1990 1113 235 9.81   46.095 138.670 27.8       6.200
      1990 11131030 0.94   -2.393 139.729 33.0       5.100
      1990 1113201329.28   -0.054 -16.667 10.0       5.000
      1990 1113211855.67  -30.807-178.426232.4       5.100
      1990 1114181158.32  -22.147-138.852  0.0       5.600
      1990 11141845 3.35   27.426  66.098 33.0       5.300
      1990 11141917 0.71   37.227-116.371  0.0       5.400
      1990 1115 23433.29    3.947  97.557 56.3       6.100
      1990 1115 32827.51   23.688  92.876 49.6       5.100
      1990 1115 44814.60    3.983  97.417 51.3       5.700
      1990 1115 51843.24    3.842  97.263 33.0       5.600
      1990 1115 54723.68    3.978  97.442 63.6       5.400
      1990 11151518 4.00   50.828  92.543 33.0       5.000
      1990 1116 72010.36  -59.727 -26.266 33.0       5.500
      1990 1116144350.20  -31.842-178.550 65.3       5.600
      1990 1117 2 923.77   -5.817 129.117209.4       5.200
      1990 1117 21253.35    2.761  95.430 33.0       5.400
      1990 1118113028.14   41.405 142.870 57.1       5.000
      1990 1118141553.90    2.332 -84.512 10.0       5.000
      1990 111816 650.77    3.728  97.190 33.0       5.100
      1990 11181623 7.54    3.913  97.377 72.1       5.700
      1990 1118202815.42   17.825 -63.030 90.5       5.500
      1990 1120 9 337.01    0.158 126.975114.1       5.700
      1990 1120133735.17   45.138 150.889 51.0       5.300
      1990 1120162827.68  -22.565 -69.849 60.2       5.000
      1990 1120201742.38  -18.189-174.748 86.6       5.200
      1990 1121 14826.51   51.597-171.232 33.0       5.700
      1990 1121165958.09  -21.906-138.960  0.0       5.400
      1990 1121233956.64  -21.302-179.053640.7       5.100
      1990 1122 51346.03   51.789-175.271 61.3       5.200
      1990 1122 53017.41    5.291 125.424 33.0       5.100
      1990 1122142512.79  -10.118 -78.690 48.0       5.200
      1990 11222049 8.64   -5.605 151.091 44.7       5.900
      1990 1123 056 8.30   -4.941 145.796 56.8       5.400
      1990 1123 74147.91    5.621 125.758 33.0       5.800
      1990 112310 8 3.74  -17.560-178.602555.5       5.600
      1990 1123223534.27    4.726 -75.602138.2       5.800
      1990 1124 15825.41   -4.126 102.375 52.2       5.000
      1990 1124 74610.25  -15.109-177.609441.1       5.000
      1990 1124 75330.44   10.791 -69.483 33.0       5.100
      1990 1124161659.59   -2.012 135.334 33.0       5.200
      1990 1125 1 053.99  -23.341-175.947 33.0       5.300
      1990 1125 33619.95  -23.544-176.027114.5       5.400
      1990 1125 4 3 1.38  -23.450-176.248176.9       5.000
      1990 1125 41955.13  -30.892-178.856 33.0       5.500
      1990 1125123245.35   -2.704 -77.795 25.3       5.700
      1990 112620 920.83  -21.583-179.399624.7       5.000
      1990 1127 02444.49   -5.919 129.673105.8       5.100
      1990 1127 02828.40    3.301  98.411147.4       5.100
      1990 1127 43757.16   43.865  16.627 10.0       5.200
      1990 1127 45136.53   43.889  16.701 10.0       5.100
      1990 1129 04032.74  -20.761-179.079623.6       5.100
      1990 11291450 6.11   13.029 143.784124.6       5.200
      1990 11292135 0.07  -42.075  88.226 10.0       4.700
      1990 1130131928.40    1.043 123.945 33.0       5.500
      1990 11301417 2.66    1.052 123.984 26.2       5.400
      1990 12 1 03129.25   -3.671 135.580 33.0       5.300
      1990 12 118 928.80   40.797  73.622 32.4       5.000
      1990 12 1182536.73    7.614 126.516 33.0       5.300
      1990 12 2 8 552.71   40.155 143.540 29.5       5.000
      1990 12 2 844 1.51  -26.775-114.235 10.0       5.200
      1990 12 2143727.58  -21.681 -68.304121.4       5.300
      1990 12 3 54820.75  -22.753 166.736 33.0       5.600
      1990 12 3 74038.69  -20.552-173.362 33.0       5.200
      1990 12 4 91251.16   43.757 -28.871 11.7       5.200
      1990 12 4 91738.59   -0.161 125.110 40.6       5.300
      1990 12 516 852.78   -5.258 131.421 89.2       5.900
      1990 12 5225247.95   44.685 146.861 33.0       5.200
      1990 12 7 22429.75  -27.816 -66.402143.9       5.100
      1990 12 7 825 3.29  -16.822-177.357412.4       5.500
      1990 12 7 93816.59   37.233 138.480 10.0       5.300
      1990 12 7 94043.39   37.320 138.511 12.5       5.000
      1990 12 72031 3.32   -6.799 132.240 33.0       5.200
      1990 12 723 816.77  -21.006-178.976611.1       5.200
      1990 12 8 03811.76   -6.640 147.442 67.5       5.300
      1990 12 8 6 313.37  -57.840 -25.227 33.0       5.200
      1990 12 8 62741.51  -18.154-178.087636.9       5.100
      1990 12 8143834.07   44.438 148.337 33.0       5.100
      1990 12 8175355.05   -3.241 134.505 33.0       5.000
      1990 12 9 52650.62   -8.692 110.520 33.0       5.000
      1990 12 9153628.10   54.857 162.191 34.0       5.700
      1990 1210 11557.19  -20.053-177.620398.3       5.000
      1990 1210 72721.87   42.847 145.553 37.8       5.400
      1990 1210 93432.89   -5.957 142.290 33.0       5.700
      1990 1210 94215.62   -5.928 142.223 33.0       5.500
      1990 1210162016.17  -34.707-111.385 10.0       5.000
      1990 1211 85734.72   13.199 -89.786 33.0       5.000
      1990 1211144145.20  -15.184-173.402 30.2       5.700
      1990 121116 931.08  -15.146-173.389 33.0       5.200
      1990 1211214147.28   -5.814 142.353 33.0       5.200
      1990 1212 32551.36   27.136 126.378159.4       5.300
      1990 1212 721 5.47   -5.802 142.012 33.0       5.200
      1990 12121824 8.79    1.175 123.832 33.0       5.300
      1990 1213 02424.34   37.198  15.502  9.9       5.400
      1990 1213 3 149.03   24.032 121.669 14.2       5.900
      1990 1213 83728.51   23.629 121.647 10.0       5.100
      1990 1213101321.92   35.532 140.972 33.0       5.000
      1990 1213122640.56    1.117 123.976 33.0       6.000
      1990 1213195017.96   23.743 121.688 10.0       5.900
      1990 12132028 8.79   23.771 121.883  6.9       5.300
      1990 1213204237.59   23.640 121.883 10.0       5.400
      1990 121321 0 5.63   23.817 121.839 10.0       5.000
      1990 1213213030.95   23.633 121.692 10.0       5.100
      1990 1213215637.82   23.574 121.750 10.0       5.400
      1990 1213221833.22   23.654 121.825 10.0       5.000
      1990 1213223921.65   -5.856 141.962 33.0       5.300
      1990 12132243 2.82   24.005 121.556 10.0       5.000
      1990 1213231859.39   23.580 121.659 10.0       5.400
      1990 12132328 4.65   23.755 121.673 10.0       5.700
      1990 1214 14353.17   23.751 121.848 10.0       5.000
      1990 1214 23738.78   23.557 121.734 10.0       5.200
      1990 1214 25318.56  -25.602 -70.320 33.0       5.000
      1990 1214 31345.05   21.741 122.896 10.0       5.000
      1990 1214 32126.80   39.303  15.380278.7       5.400
      1990 1214104412.77   21.364 122.490 10.0       5.000
      1990 1214112239.35   -9.658 -78.899 40.7       5.300
      1990 1214114634.54    0.891 123.279 33.0       5.000
      1990 121414 9 7.29   -2.976 136.553 33.0       5.200
      1990 1215203010.00   24.814 145.448 33.0       5.200
      1990 121610 656.24   -7.032 127.255276.8       5.000
      1990 1216154540.77   41.317  43.742 33.0       5.300
      1990 1216201947.76   -5.982 142.044 33.0       5.200
      1990 1216202849.64  -19.683-173.178 33.0       5.300
      1990 1216221850.01   29.050  51.309 16.0       5.300
      1990 1217 121 7.76    1.403 123.160 33.0       5.000
      1990 1217 14348.53    1.266 123.165 33.0       5.300
      1990 1217 41516.27  -23.971 179.119550.0       5.300
      1990 121711 019.63    6.654 -82.031 23.3       5.800
      1990 1218 23312.11  -42.601 -16.170 10.0       5.500
      1990 1218 24921.95  -42.811 -16.026 10.0       5.600
      1990 121815 123.51  -40.429 -91.780 17.6       5.300
      1990 1219 0 812.88   23.504 121.579 10.0       5.000
      1990 1219 02024.88   23.753 121.570 10.0       5.300
      1990 1219 73423.54  -26.753-175.908 40.9       5.300
      1990 1219 848 2.47  -10.927 163.464 33.0       5.000
      1990 1219134824.40   52.602 160.829 33.0       5.800
      1990 121917 111.93  -16.728 -73.351 60.5       5.200
      1990 121922 118.97  -29.140 -67.371 81.5       5.200
      1990 1219233835.52   23.641 121.626 10.0       5.400
      1990 1219234852.43   23.655 121.460 10.0       5.100
      1990 1220 7 3 2.79   37.559  70.299 33.0       5.500
      1990 122017 440.15   28.016  83.095 33.0       5.000
      1990 1221 32646.54  -16.450-177.702 33.0       5.400
      1990 1221 52931.98  -20.358-174.206 33.0       6.100
      1990 1221 65744.01   40.984  22.338 18.4       5.800
      1990 1221113818.64  -20.479-178.682603.5       5.100
      1990 1221125545.55  -18.814-178.027457.3       5.300
      1990 1221183142.88  -32.656 -69.593109.1       5.300
      1990 1221203443.14   20.254 -45.685 10.0       5.000
      1990 1222172754.85    9.908 -84.299 12.7       5.300
      1990 1222181851.74   18.797 145.509195.8       5.100
      1990 122219 142.78  -14.927 168.038 33.0       5.800
      1990 1222204841.69  -18.572-176.382 33.0       5.000
      1990 1223 11122.62    1.118 124.090 33.0       5.300
      1990 1223144314.53  -10.801 166.646 33.0       5.100
      1990 1223163916.61  -49.203  30.740 10.0       5.100
      1990 1223174829.48  -14.516 167.010 33.0       5.700
      1990 122321 3 3.50   -0.696 127.397 33.0       5.500
      1990 1224 42122.92  -55.793 -27.181 33.0       5.000
      1990 1224 45520.19   -7.841 108.844 33.0       5.000
      1990 1224 82244.57  -19.882-173.080 33.0       5.400
      1990 1224101212.64   -5.363 151.492 49.2       5.700
      1990 1224123739.23   39.740 143.197 37.9       5.000
      1990 1224164012.68  -20.983 -11.661 10.0       5.100
      1990 1224191547.38   -5.658 146.416 64.6       5.200
      1990 122421 9 3.37   41.982 142.411 68.9       5.000
      1990 1225 1 653.69   12.216  93.579 24.1       5.100
      1990 1225 35643.48   33.282  75.651 29.7       5.300
      1990 1225142153.25   23.776 121.585 17.7       5.600
      1990 12251430 5.45   23.851 121.465 10.0       5.300
      1990 1225202126.58  -24.795 179.670503.0       5.300
      1990 1225225920.07   -0.759 127.407 33.0       5.200
      1990 1226 12434.15   48.348 153.887 87.2       5.000
      1990 1226 15935.14   -0.718 127.231 33.0       5.100
      1990 1226145057.89   52.772 161.097 43.8       5.000
      1990 1226153159.58   52.686 161.139 34.3       5.200
      1990 1227101426.12  -19.241-177.651593.1       5.200
      1990 12271335 9.30   -6.874 129.521172.2       5.700
      1990 122716 834.84  -22.773 -70.396 63.4       5.200
      1990 1227161034.15   54.191 160.213106.2       5.000
      1990 122718 139.61  -19.606 168.948 44.5       5.100
      1990 1228 14236.00   52.570 161.189 33.0       5.100
      1990 1228 63559.38   63.004-148.915 87.2       5.100
      1990 1228 825 7.75   -5.743 151.940 37.1       5.200
      1990 1228111639.39   48.743-128.302 10.0       5.100
      1990 1228204518.89   -0.854 127.555 33.0       5.000
      1990 1228223215.99  -14.948  66.755 10.0       6.000
      1990 1229 04049.69   -0.121 122.989183.1       5.200
      1990 1229132354.57    8.228  94.022 20.6       5.600
      1990 1229153411.29   32.791  47.901  9.4       5.200
      1990 1229162530.40  -17.931-175.449230.0       5.000
      1990 12291643 9.82   23.933 121.822 10.0       5.100
      1990 1229185432.25   52.201-170.528 33.0       5.100
      1990 1229192411.82   26.532  92.489 33.0       5.000
      1990 122921 527.94    5.693 125.878114.2       5.300
      1990 1229224429.30   -8.748 118.859 62.9       5.000
      1990 1230 03938.22   -5.549 147.191195.8       5.300
      1990 1230 62216.31   -0.092 122.999177.0       5.400
      1990 1230114740.44   11.268 139.588 62.6       5.000
      1990 1230143143.85  -20.746-173.474 33.0       5.200
      1990 1230191419.76   -5.090 150.984187.8       6.700
      1990 1230213029.13   18.647-107.036 33.0       5.200
      1990 12302228 3.83   -7.726 122.994275.0       5.100
      1990 1231 23841.93    6.783 -73.034143.2       5.400
      1990 1231122311.43  -14.169 167.181239.5       5.000
      1990 1231163023.27  -17.166-174.377 33.0       5.100
      1990 1231175659.25    0.908 126.698 33.0       5.300
      1990 1231221133.43  -21.990 174.949 33.0       5.400
