70 1 1  0 0  0.00  12.0000  143.7000   0.00   0.00 24
   67860 YKA    P        t    d 661539483.398   1.000
   67860 YKA    P        a    d       288.000  15.000
   67860 YKA    P        s    n         5.240   1.500
   67862 YKA    sP       t    d 661539484.500   3.000
   67864 YKA    pP       t    d 661539490.000   3.000
   66889 FIA1   P        t    d 661539517.797   1.000
   66889 FIA1   P        a    d        77.000  15.000
   66889 FIA1   P        s    n         4.810   1.500
   67415 CTA    P        t    d 661539120.000   1.000
   67458 WRA    P        t    d 661539127.797   1.000
   67458 WRA    P        a    d        18.000  15.000
   67458 WRA    P        s    n         8.790   1.500
   68230 ASPA   P        t    d 661539158.898   1.000
   66971 KAF    P        t    d 661539516.398   1.000
   66977 VAF    P        t    d 661539520.797   1.000
   67510 ASAR   P        t    d 661539159.695   1.000
   67510 ASAR   P        a    d        18.000  15.000
   67510 ASAR   P        s    n         4.400   1.500
   67023 ARA0   P        t    d 661539499.898   1.000
   67023 ARA0   P        a    d        65.000  15.000
   67023 ARA0   P        s    n         7.120   1.500
   67024 ARA0   sP       t    d 661539510.898   1.000
   67024 ARA0   sP       a    d        62.000  15.000
   67024 ARA0   sP       s    n         6.690   1.500

70 1 1  0 0  0.00  12.0000  143.7000   0.00   0.00 24
   67860 YKA    P        t    d 661539483.398   1.000
   67860 YKA    P        a    d       288.000  15.000
   67860 YKA    P        s    n         5.240   1.500
   67862 YKA    sP       t    d 661539484.500   3.000
   67864 YKA    pP       t    d 661539490.000   3.000
   66889 FIA1   P        t    d 661539517.797   1.000
   66889 FIA1   P        a    d        77.000  15.000
   66889 FIA1   P        s    n         4.810   1.500
   67415 CTA    P        t    d 661539120.000   1.000
   67458 WRA    P        t    d 661539127.797   1.000
   67458 WRA    P        a    d        18.000  15.000
   67458 WRA    P        s    n         8.790   1.500
   68230 ASPA   P        t    d 661539158.898   1.000
   66971 KAF    P        t    d 661539516.398   1.000
   66977 VAF    P        t    d 661539520.797   1.000
   67510 ASAR   P        t    d 661539159.695   1.000
   67510 ASAR   P        a    d        18.000  15.000
   67510 ASAR   P        s    n         4.400   1.500
   67023 ARA0   P        t    d 661539499.898   1.000
   67023 ARA0   P        a    d        65.000  15.000
   67023 ARA0   P        s    n         7.120   1.500
   67024 ARA0   sP       t    d 661539510.898   1.000
   67024 ARA0   sP       a    d        62.000  15.000
   67024 ARA0   sP       s    n         6.690   1.500

901218 1645 32.10  12.1323  143.7391  20.88   0.00 24
   67860 YKA    P        t    d       751.296   1.000
   67860 YKA    P        a    d       288.000  15.000
   67860 YKA    P        s    n         5.240   1.500
   67862 YKA    sP       t    d       752.398   3.000
   67864 YKA    pP       t    d       757.898   3.000
   66889 FIA1   P        t    d       785.695   1.000
   66889 FIA1   P        a    d        77.000  15.000
   66889 FIA1   P        s    n         4.810   1.500
   67415 CTA    P        t    d       387.898   1.000
   67458 WRA    P        t    d       395.695   1.000
   67458 WRA    P        a    d        18.000  15.000
   67458 WRA    P        s    n         8.790   1.500
   68230 ASPA   P        t    d       426.796   1.000
   66971 KAF    P        t    d       784.296   1.000
   66977 VAF    P        t    d       788.695   1.000
   67510 ASAR   P        t    d       427.593   1.000
   67510 ASAR   P        a    d        18.000  15.000
   67510 ASAR   P        s    n         4.400   1.500
   67023 ARA0   P        t    d       767.796   1.000
   67023 ARA0   P        a    d        65.000  15.000
   67023 ARA0   P        s    n         7.120   1.500
   67024 ARA0   sP       t    d       778.796   1.000
   67024 ARA0   sP       a    d        62.000  15.000
   67024 ARA0   sP       s    n         6.690   1.500

901218 1645 32.10  12.1323  143.7391  20.88   0.00 24
   67860 YKA    P        t    d       751.296   1.000
   67860 YKA    P        a    d       288.000  15.000
   67860 YKA    P        s    n         5.240   1.500
   67862 YKA    sP       t    d       752.398   3.000
   67864 YKA    pP       t    d       757.898   3.000
   66889 FIA1   P        t    d       785.695   1.000
   66889 FIA1   P        a    d        77.000  15.000
   66889 FIA1   P        s    n         4.810   1.500
   67415 CTA    P        t    d       387.898   1.000
   67458 WRA    P        t    d       395.695   1.000
   67458 WRA    P        a    d        18.000  15.000
   67458 WRA    P        s    n         8.790   1.500
   68230 ASPA   P        t    d       426.796   1.000
   66971 KAF    P        t    d       784.296   1.000
   66977 VAF    P        t    d       788.695   1.000
   67510 ASAR   P        t    d       427.593   1.000
   67510 ASAR   P        a    d        18.000  15.000
   67510 ASAR   P        s    n         4.400   1.500
   67023 ARA0   P        t    d       767.796   1.000
   67023 ARA0   P        a    d        65.000  15.000
   67023 ARA0   P        s    n         7.120   1.500
   67024 ARA0   sP       t    d       778.796   1.000
   67024 ARA0   sP       a    d        62.000  15.000
   67024 ARA0   sP       s    n         6.690   1.500

70 1 1  0 0  0.00  50.0000    7.0000   1.00   0.00  4
       1 GEC2   Pn       t    d 674359595.500   0.100
       2 GEC2   Sn       t    d 674359609.100   1.000
       3 GEC2   Pg       t    d 674359591.600   0.100
       4 GEC2   Sg       t    d 674359602.200   1.000

901218 1651 10.90  36.8779   73.1508  26.87   0.00 44
   66817 EKA    P        t    d       553.900   1.000
   66817 EKA    P        a    d        67.000  15.000
   66817 EKA    P        s    n         8.540   1.500
   67615 WRA    P        t    d       730.603   1.000
   67615 WRA    P        a    d       326.000  15.000
   67615 WRA    P        s    n         5.010   1.500
   68132 HFS    P        t    d       481.400   1.000
   68132 HFS    P        a    d        95.000  15.000
   68132 HFS    P        s    n         8.010   1.500
   68135 HFS    pP       t    d       490.400   3.000
   67115 OBN    P        t    d       372.197   1.000
   67116 OBN    PP       t    n       429.494   2.000
   67390 NRA0   P        t    d       490.197   1.000
   67390 NRA0   P        a    d       119.000  15.000
   67390 NRA0   P        s    n         4.500   1.500
   67391 NRA0   pP       t    d       498.994   1.000
   67391 NRA0   pP       a    d        98.000  15.000
   67391 NRA0   pP       s    n         7.770   1.500
   67400 ARU    P        t    d       288.697   1.000
   67402 ARU    sP       t    d       299.603   3.000
   68170 GAR    P        t    d        49.103   1.000
   67405 ARU    S        t    d       532.494   5.000
   68174 GAR    S        t    d        89.197   5.000
   67153 KIV    P        t    d       313.603   1.000
   67155 KIV    PP       t    n       340.291   3.000
   67156 KIV    S        t    n       577.197   5.000
   67926 YKA    P        t    d       728.400   1.000
   67926 YKA    P        a    d       351.000  15.000
   67926 YKA    P        s    n         5.450   1.500
   67928 YKA    pP       t    d       734.400   3.000
   66930 FIA1   P        t    d       435.197   1.000
   66930 FIA1   P        a    d       108.000  15.000
   66930 FIA1   P        s    n         9.030   1.500
   66931 FIA1   pP       t    d       442.791   3.000
   66931 FIA1   pP       a    d       119.000  15.000
   66931 FIA1   pP       s    n         9.030   1.500
   67717 ASAR   P        t    d       743.103   1.000
   67717 ASAR   P        a    d       326.000  15.000
   67717 ASAR   P        s    n         5.010   1.500
   66959 MAT    P        t    d       542.197   1.000
   67547 ASPA   P        t    d       744.197   1.000
   67053 ARA0   P        t    d       461.400   1.000
   67053 ARA0   P        a    d       112.000  15.000
   67053 ARA0   P        s    n         8.680   1.500

901218 1645 32.10  12.1323  143.7391  20.88   0.00 24
   67860 YKA    P        t    d       751.296   1.000
   67860 YKA    P        a    d       288.000  15.000
   67860 YKA    P        s    n         5.240   1.500
   67862 YKA    sP       t    d       752.398   3.000
   67864 YKA    pP       t    d       757.898   3.000
   66889 FIA1   P        t    d       785.695   1.000
   66889 FIA1   P        a    d        77.000  15.000
   66889 FIA1   P        s    n         4.810   1.500
   67415 CTA    P        t    d       387.898   1.000
   67458 WRA    P        t    d       395.695   1.000
   67458 WRA    P        a    d        18.000  15.000
   67458 WRA    P        s    n         8.790   1.500
   68230 ASPA   P        t    d       426.796   1.000
   66971 KAF    P        t    d       784.296   1.000
   66977 VAF    P        t    d       788.695   1.000
   67510 ASAR   P        t    d       427.593   1.000
   67510 ASAR   P        a    d        18.000  15.000
   67510 ASAR   P        s    n         4.400   1.500
   67023 ARA0   P        t    d       767.796   1.000
   67023 ARA0   P        a    d        65.000  15.000
   67023 ARA0   P        s    n         7.120   1.500
   67024 ARA0   sP       t    d       778.796   1.000
   67024 ARA0   sP       a    d        62.000  15.000
   67024 ARA0   sP       s    n         6.690   1.500

691231 2352 49.62  59.2510   27.4055   0.00   0.00 20
   71463 VAF    Lg       t    d       138.232   3.000
   71464 KAF    Sn       t    d        85.387   3.000
   71465 KAF    Rg       t    n       110.351   3.000
   71466 KAF    Lg       t    d        90.855   3.000
   66883 FIA1   Pn       t    d        40.601   3.000
   66883 FIA1   Pn       a    d       166.000  15.000
   66883 FIA1   Pn       s    n        16.830   1.500
   66884 FIA1   Lg       t    d        70.703   5.000
   66884 FIA1   Lg       a    n       172.000 -15.000
   66884 FIA1   Lg       s    n        32.680   1.500
   66970 KAF    Pn       t    d        47.203   1.000
   67020 ARA0   Pn       t    d       148.101   3.000
   67020 ARA0   Pn       a    d       177.000  15.000
   67020 ARA0   Pn       s    n        12.770   1.500
   67021 ARA0   Sn       t    d       260.101   5.000
   67021 ARA0   Sn       a    d       167.000  15.000
   67021 ARA0   Sn       s    n        26.450   1.500
   67022 ARA0   Lg       t    d       321.304   5.000
   67022 ARA0   Lg       a    d       158.000  15.000
   67022 ARA0   Lg       s    n        33.670   1.500

901218 1645 32.10  12.1323  143.7391  20.88   0.00 24
   67860 YKA    P        t    d       751.296   1.000
   67860 YKA    P        a    d       288.000  15.000
   67860 YKA    P        s    n         5.240   1.500
   67862 YKA    sP       t    d       752.398   3.000
   67864 YKA    pP       t    d       757.898   3.000
   66889 FIA1   P        t    d       785.695   1.000
   66889 FIA1   P        a    d        77.000  15.000
   66889 FIA1   P        s    n         4.810   1.500
   67415 CTA    P        t    d       387.898   1.000
   67458 WRA    P        t    d       395.695   1.000
   67458 WRA    P        a    d        18.000  15.000
   67458 WRA    P        s    n         8.790   1.500
   68230 ASPA   P        t    d       426.796   1.000
   66971 KAF    P        t    d       784.296   1.000
   66977 VAF    P        t    d       788.695   1.000
   67510 ASAR   P        t    d       427.593   1.000
   67510 ASAR   P        a    d        18.000  15.000
   67510 ASAR   P        s    n         4.400   1.500
   67023 ARA0   P        t    d       767.796   1.000
   67023 ARA0   P        a    d        65.000  15.000
   67023 ARA0   P        s    n         7.120   1.500
   67024 ARA0   sP       t    d       778.796   1.000
   67024 ARA0   sP       a    d        62.000  15.000
   67024 ARA0   sP       s    n         6.690   1.500

901218 1645 32.10  12.1323  143.7391  20.88   0.00 24
   67860 YKA    P        t    d       751.296   1.000
   67860 YKA    P        a    d       288.000  15.000
   67860 YKA    P        s    n         5.240   1.500
   67862 YKA    sP       t    d       752.398   3.000
   67864 YKA    pP       t    d       757.898   3.000
   66889 FIA1   P        t    d       785.695   1.000
   66889 FIA1   P        a    d        77.000  15.000
   66889 FIA1   P        s    n         4.810   1.500
   67415 CTA    P        t    d       387.898   1.000
   67458 WRA    P        t    d       395.695   1.000
   67458 WRA    P        a    d        18.000  15.000
   67458 WRA    P        s    n         8.790   1.500
   68230 ASPA   P        t    d       426.796   1.000
   66971 KAF    P        t    d       784.296   1.000
   66977 VAF    P        t    d       788.695   1.000
   67510 ASAR   P        t    d       427.593   1.000
   67510 ASAR   P        a    d        18.000  15.000
   67510 ASAR   P        s    n         4.400   1.500
   67023 ARA0   P        t    d       767.796   1.000
   67023 ARA0   P        a    d        65.000  15.000
   67023 ARA0   P        s    n         7.120   1.500
   67024 ARA0   sP       t    d       778.796   1.000
   67024 ARA0   sP       a    d        62.000  15.000
   67024 ARA0   sP       s    n         6.690   1.500

901218 1645 32.27  12.2928  143.7192  20.58   0.00 24
   67860 YKA    P        t    d       751.125   1.000
   67860 YKA    P        a    d       288.000  15.000
   67860 YKA    P        s    n         5.240   1.500
   67862 YKA    sP       t    d       752.227   3.000
   67864 YKA    pP       t    d       757.727   3.000
   66889 FIA1   P        t    d       785.524   1.000
   66889 FIA1   P        a    d        77.000  15.000
   66889 FIA1   P        s    n         4.810   1.500
   67415 CTA    P        t    d       387.727   1.000
   67458 WRA    P        t    d       395.524   1.000
   67458 WRA    P        a    d        18.000  15.000
   67458 WRA    P        s    n         8.790   1.500
   68230 ASPA   P        t    d       426.625   1.000
   66971 KAF    P        t    d       784.125   1.000
   66977 VAF    P        t    d       788.524   1.000
   67510 ASAR   P        t    d       427.422   1.000
   67510 ASAR   P        a    d        18.000  15.000
   67510 ASAR   P        s    n         4.400   1.500
   67023 ARA0   P        t    d       767.625   1.000
   67023 ARA0   P        a    d        65.000  15.000
   67023 ARA0   P        s    n         7.120   1.500
   67024 ARA0   sP       t    d       778.625   1.000
   67024 ARA0   sP       a    d        62.000  15.000
   67024 ARA0   sP       s    n         6.690   1.500

70 1 1  0 0  0.00  50.0000   15.0000  10.00   0.00 13
       1 GEC2   Pn       t    d 672896487.900   0.300
       1 GEC2   Pn       a    d        28.100   5.000
       1 GEC2   Pn       s    d        12.630   0.500
       3 GEC2   Pg       t    d 672896495.500   0.300
       3 GEC2   Pg       a    d        32.400   5.000
       3 GEC2   Pg       s    d        18.210   0.500
       6 GEC2   Sg       t    d 672896534.700   0.300
       6 GEC2   Sg       a    d        27.300   5.000
       6 GEC2   Sg       s    d        27.100   0.500
       7 brg    Pn       t    d 672896464.800   0.300
       8 brg    Pg       t    d 672896466.700   0.300
       9 brg    Sg       t    d 672896486.500   0.300
       7 wet    Pn       t    d 672896489.000   0.300

70 1 1  0 0  0.00  50.0000   15.0000  10.00   0.00 13
       1 GEC2   Pn       t    d 672896487.900   0.300
       1 GEC2   Pn       a    d        28.100   5.000
       1 GEC2   Pn       s    d        12.630   0.500
       3 GEC2   Pg       t    d 672896495.500   0.300
       3 GEC2   Pg       a    d        32.400   5.000
       3 GEC2   Pg       s    d        18.210   0.500
       6 GEC2   Sg       t    d 672896534.700   0.300
       6 GEC2   Sg       a    d        27.300   5.000
       6 GEC2   Sg       s    d        27.100   0.500
       7 brg    Pn       t    d 672896464.800   0.300
       8 brg    Pg       t    d 672896466.700   0.300
       9 brg    Sg       t    d 672896486.500   0.300
       7 wet    Pn       t    d 672896489.000   0.300

91 429  340 38.37  51.3089   16.1253  10.00   0.00 13
       1 GEC2   Pn       t    d        49.525   0.300
       1 GEC2   Pn       a    d        28.100   5.000
       1 GEC2   Pn       s    d        12.630   0.500
       3 GEC2   Pg       t    d        57.125   0.300
       3 GEC2   Pg       a    d        32.400   5.000
       3 GEC2   Pg       s    d        18.210   0.500
       6 GEC2   Sg       t    d        96.325   0.300
       6 GEC2   Sg       a    d        27.300   5.000
       6 GEC2   Sg       s    d        27.100   0.500
       7 brg    Pn       t    d        26.425   0.300
       8 brg    Pg       t    d        28.325   0.300
       9 brg    Sg       t    d        48.125   0.300
       7 wet    Pn       t    d        50.625   0.300

91 429  340 38.38  51.3091   16.1251   1.00   0.00 13
       1 GEC2   Pn       t    d        49.524   0.300
       1 GEC2   Pn       a    d        28.100   5.000
       1 GEC2   Pn       s    d        12.630   0.500
       3 GEC2   Pg       t    d        57.124   0.300
       3 GEC2   Pg       a    d        32.400   5.000
       3 GEC2   Pg       s    d        18.210   0.500
       6 GEC2   Sg       t    d        96.324   0.300
       6 GEC2   Sg       a    d        27.300   5.000
       6 GEC2   Sg       s    d        27.100   0.500
       7 brg    Pn       t    d        26.424   0.300
       8 brg    Pg       t    d        28.324   0.300
       9 brg    Sg       t    d        48.124   0.300
       7 wet    Pn       t    d        50.624   0.300

91 429  340 37.85  51.3163   16.1523   1.00   0.00 12
       1 GEC2   Pn       t    d        50.047   0.300
       1 GEC2   Pn       a    d        28.100   5.000
       1 GEC2   Pn       s    d        12.630   0.500
       3 GEC2   Pg       t    d        57.647   0.300
       3 GEC2   Pg       a    d        32.400   5.000
       3 GEC2   Pg       s    d        18.210   0.500
       6 GEC2   Sg       t    d        96.847   0.300
       6 GEC2   Sg       a    d        27.300   5.000
       6 GEC2   Sg       s    d        27.100   0.500
       7 brg    Pn       t    d        26.947   0.300
       8 brg    Pg       t    d        28.847   0.300
       9 brg    Sg       t    d        48.647   0.300

91 429  340 39.15  51.3357   15.9480   1.00   0.00  9
       1 GEC2   Pn       t    d        48.749   0.300
       1 GEC2   Pn       a    d        28.100   5.000
       1 GEC2   Pn       s    d        12.630   0.500
       3 GEC2   Pg       t    d        56.349   0.300
       3 GEC2   Pg       a    d        32.400   5.000
       3 GEC2   Pg       s    d        18.210   0.500
       6 GEC2   Sg       t    d        95.549   0.300
       6 GEC2   Sg       a    d        27.300   5.000
       6 GEC2   Sg       s    d        27.100   0.500

91 429  340 36.29  51.4012   16.0674   1.00   0.00  6
       3 GEC2   Pg       t    d        59.206   0.300
       3 GEC2   Pg       a    d        32.400   5.000
       3 GEC2   Pg       s    d        18.210   0.500
       6 GEC2   Sg       t    d        98.406   0.300
       6 GEC2   Sg       a    d        27.300   5.000
       6 GEC2   Sg       s    d        27.100   0.500

91 429  340 36.29  51.3290   16.2451   1.00   0.00  4
       3 GEC2   Pg       t    d        59.206   0.300
       3 GEC2   Pg       a    d        32.400   5.000
       3 GEC2   Pg       s    d        18.210   0.500
       4 GEC2   Sg       t    d        98.406   0.300

91 429  340 36.29  51.3290   16.2451   1.00   0.00  4
       3 GEC2   Pg       t    d        59.206   0.300
       3 GEC2   Pg       a    d        32.400   5.000
       3 GEC2   Pg       s    d        18.210   0.500
       4 GEC2   Sg       t    d        98.406   0.300

